<svg xmlns="http://www.w3.org/2000/svg" width="71" height="94" viewBox="0 0 71 94" fill="none">
<rect y="0.0584717" width="6.4" height="93.6001" rx="3.2" fill="url(#paint0_linear_1199_5404)"/>
<g filter="url(#filter0_b_1199_5404)">
<path d="M2.39941 12.9151C2.39941 10.2421 4.58302 8.08404 7.25588 8.11548L62.8759 8.76984C66.3842 8.81111 68.6593 12.4909 66.8978 15.5252C60.0409 27.3368 55.1462 28.5812 51.12 36.5385C50.6301 37.5069 50.5236 38.6456 50.9002 39.6634C53.8587 47.6598 61.2542 47.0589 65.7582 61.5565C66.6589 64.4558 64.3591 67.2584 61.3231 67.2584H7.19942C4.54845 67.2584 2.39941 65.1093 2.39941 62.4584V12.9151Z" fill="#90ABFD" fill-opacity="0.4"/>
<path d="M7.25212 8.43546L62.8721 9.08982C66.158 9.12847 68.2484 12.5613 66.6211 15.3645C63.2095 21.2412 60.2893 24.4855 57.7129 27.2594C57.5812 27.4012 57.4504 27.5418 57.3204 27.6815C54.9017 30.2808 52.7669 32.5749 50.8345 36.3941C50.3085 37.4336 50.1895 38.6649 50.6001 39.7745C51.8611 43.1829 53.9258 45.0782 56.1719 47.1402C56.6186 47.5502 57.0724 47.9668 57.5284 48.4032C60.2786 51.0345 63.2196 54.4638 65.4526 61.6514C66.2819 64.321 64.1689 66.9384 61.3231 66.9384H7.19942C4.72518 66.9384 2.71941 64.9326 2.71941 62.4584V12.9151C2.71941 10.4203 4.75745 8.40611 7.25212 8.43546Z" stroke="url(#paint1_linear_1199_5404)" stroke-width="0.64"/>
</g>
<defs>
<filter id="filter0_b_1199_5404" x="-8.046" y="-2.3303" width="85.9987" height="80.0341" filterUnits="userSpaceOnUse" color-interpolation-filters="sRGB">
<feFlood flood-opacity="0" result="BackgroundImageFix"/>
<feGaussianBlur in="BackgroundImageFix" stdDeviation="5.22271"/>
<feComposite in2="SourceAlpha" operator="in" result="effect1_backgroundBlur_1199_5404"/>
<feBlend mode="normal" in="SourceGraphic" in2="effect1_backgroundBlur_1199_5404" result="shape"/>
</filter>
<linearGradient id="paint0_linear_1199_5404" x1="-11.6" y1="128.059" x2="3.2" y2="13.6585" gradientUnits="userSpaceOnUse">
<stop stop-color="#6B8CF4"/>
<stop offset="1" stop-color="#0F45EE"/>
</linearGradient>
<linearGradient id="paint1_linear_1199_5404" x1="-2.45773" y1="13.4402" x2="87.5789" y2="66.8389" gradientUnits="userSpaceOnUse">
<stop stop-color="white"/>
<stop offset="1" stop-color="white" stop-opacity="0"/>
</linearGradient>
</defs>
</svg>