<svg width="940" height="1112" viewBox="0 0 940 1112" fill="none" xmlns="http://www.w3.org/2000/svg">
<g filter="url(#filter0_f_1199_5187)">
<path d="M-177.532 711.881C-95.038 836.093 -105.953 325.168 460.423 553.477C651.589 630.536 547.066 75.1073 319.222 -201.533C91.3784 -478.174 205.192 272.104 21.8985 212.421C-102.281 294.894 -260.026 587.669 -177.532 711.881Z" fill="#55C0F9" fill-opacity="0.34"/>
</g>
<defs>
<filter id="filter0_f_1199_5187" x="-580.419" y="-643.002" width="1520.38" height="1754.65" filterUnits="userSpaceOnUse" color-interpolation-filters="sRGB">
<feFlood flood-opacity="0" result="BackgroundImageFix"/>
<feBlend mode="normal" in="SourceGraphic" in2="BackgroundImageFix" result="shape"/>
<feGaussianBlur stdDeviation="190" result="effect1_foregroundBlur_1199_5187"/>
</filter>
</defs>
</svg>
