<svg width="148" height="148" viewBox="0 0 148 148" fill="none" xmlns="http://www.w3.org/2000/svg">
<g filter="url(#filter0_b_841_3185)">
<path d="M27.6343 67.8444C27.6343 58.1834 27.6343 53.3528 30.3173 49.7959C33.0003 46.2389 37.645 44.9119 46.9343 42.2578L63.237 37.5999C68.684 36.0436 71.4075 35.2654 74.2027 35.2654C76.9979 35.2654 79.7214 36.0436 85.1684 37.5999L101.471 42.2578C110.76 44.9119 115.405 46.2389 118.088 49.7959C120.771 53.3528 120.771 58.1834 120.771 67.8444V81.0352C120.771 99.8517 120.771 109.26 114.926 115.106C109.08 120.951 99.6719 120.951 80.8554 120.951H67.5501C48.7336 120.951 39.3253 120.951 33.4798 115.106C27.6343 109.26 27.6343 99.8517 27.6343 81.0353V67.8444Z" fill="url(#paint0_linear_841_3185)"/>
</g>
<g filter="url(#filter1_b_841_3185)">
<path fill-rule="evenodd" clip-rule="evenodd" d="M44.2661 21.1621C38.7548 21.1621 34.2871 27.3274 34.2871 34.9326V65.0693C53.8305 79.895 64.117 94.2672 74.2029 94.3408C84.5025 94.4159 94.593 79.8816 114.119 65.0693V34.9326C114.119 27.3274 109.651 21.1621 104.14 21.1621H44.2661Z" fill="#B9DDFF" fill-opacity="0.6"/>
<path d="M34.5931 34.9326C34.5931 31.1874 35.6936 27.8092 37.4576 25.3749C39.2219 22.9403 41.6329 21.4681 44.2661 21.4681H104.14C106.773 21.4681 109.184 22.9403 110.948 25.3749C112.712 27.8092 113.813 31.1874 113.813 34.9326V64.9175C106.824 70.2295 101.037 75.5082 96.0286 80.077C94.0756 81.8586 92.2409 83.5321 90.4994 85.0577C87.3771 87.7929 84.5578 90.0497 81.8843 91.6179C79.2124 93.1852 76.7055 94.0531 74.2052 94.0349C71.7574 94.017 69.2772 93.1317 66.6151 91.5576C63.952 89.983 61.1271 87.7314 57.9923 85.0062C56.2333 83.477 54.3778 81.7994 52.4018 80.0129C47.3764 75.4694 41.5718 70.2212 34.5931 64.9175V34.9326Z" stroke="url(#paint1_linear_841_3185)" stroke-width="0.611895"/>
</g>
<rect x="93.9159" y="41.3639" width="6.16312" height="39.4263" rx="3.08156" transform="rotate(90 93.9159 41.3639)" fill="url(#paint2_linear_841_3185)" fill-opacity="0.9" stroke="url(#paint3_linear_841_3185)" stroke-width="0.489516"/>
<rect x="93.9159" y="61.3229" width="6.16312" height="39.4263" rx="3.08156" transform="rotate(90 93.9159 61.3229)" fill="url(#paint4_linear_841_3185)" fill-opacity="0.9" stroke="url(#paint5_linear_841_3185)" stroke-width="0.489516"/>
<path fill-rule="evenodd" clip-rule="evenodd" d="M120.221 55.9905C120.595 58.1705 120.715 60.8124 120.753 64.13L76.3005 100.248C75.0784 101.241 73.3275 101.241 72.1054 100.248L27.6523 64.1296C27.6906 60.812 27.8103 58.1702 28.1844 55.9902L74.203 93.3803L120.221 55.9905Z" fill="url(#paint6_linear_841_3185)"/>
<defs>
<filter id="filter0_b_841_3185" x="14.329" y="21.9604" width="119.747" height="112.296" filterUnits="userSpaceOnUse" color-interpolation-filters="sRGB">
<feFlood flood-opacity="0" result="BackgroundImageFix"/>
<feGaussianBlur in="BackgroundImageFix" stdDeviation="6.65264"/>
<feComposite in2="SourceAlpha" operator="in" result="effect1_backgroundBlur_841_3185"/>
<feBlend mode="normal" in="SourceGraphic" in2="effect1_backgroundBlur_841_3185" result="shape"/>
</filter>
<filter id="filter1_b_841_3185" x="20.9818" y="7.85684" width="106.442" height="99.7902" filterUnits="userSpaceOnUse" color-interpolation-filters="sRGB">
<feFlood flood-opacity="0" result="BackgroundImageFix"/>
<feGaussianBlur in="BackgroundImageFix" stdDeviation="6.65264"/>
<feComposite in2="SourceAlpha" operator="in" result="effect1_backgroundBlur_841_3185"/>
<feBlend mode="normal" in="SourceGraphic" in2="effect1_backgroundBlur_841_3185" result="shape"/>
</filter>
<linearGradient id="paint0_linear_841_3185" x1="38.4831" y1="34.1661" x2="104.819" y2="82.3395" gradientUnits="userSpaceOnUse">
<stop stop-color="#6B8CF4"/>
<stop offset="1" stop-color="#0F45EE"/>
</linearGradient>
<linearGradient id="paint1_linear_841_3185" x1="77.5292" y1="10.1853" x2="76.133" y2="79.677" gradientUnits="userSpaceOnUse">
<stop stop-color="white"/>
<stop offset="0.996024" stop-color="white" stop-opacity="0"/>
</linearGradient>
<linearGradient id="paint2_linear_841_3185" x1="97.8657" y1="87.3277" x2="97.8657" y2="33.7466" gradientUnits="userSpaceOnUse">
<stop stop-color="white"/>
<stop offset="1" stop-color="white" stop-opacity="0"/>
</linearGradient>
<linearGradient id="paint3_linear_841_3185" x1="80.9335" y1="94.5378" x2="109.693" y2="33.3482" gradientUnits="userSpaceOnUse">
<stop stop-color="white"/>
<stop offset="1" stop-color="white" stop-opacity="0"/>
</linearGradient>
<linearGradient id="paint4_linear_841_3185" x1="91.7992" y1="101.333" x2="97.7526" y2="53.0441" gradientUnits="userSpaceOnUse">
<stop stop-color="white"/>
<stop offset="1" stop-color="white" stop-opacity="0"/>
</linearGradient>
<linearGradient id="paint5_linear_841_3185" x1="84.8396" y1="103.483" x2="108.092" y2="61.8738" gradientUnits="userSpaceOnUse">
<stop stop-color="white"/>
<stop offset="1" stop-color="white" stop-opacity="0"/>
</linearGradient>
<linearGradient id="paint6_linear_841_3185" x1="54.5084" y1="65.8345" x2="107.546" y2="103.568" gradientUnits="userSpaceOnUse">
<stop stop-color="#529EE3"/>
<stop offset="1" stop-color="#4088F4"/>
</linearGradient>
</defs>
</svg>
