<svg width="499" height="484" viewBox="0 0 499 484" fill="none" xmlns="http://www.w3.org/2000/svg">
<rect x="-12" y="0.96582" width="511" height="483" fill="url(#paint0_linear_801_4532)"/>
<defs>
<linearGradient id="paint0_linear_801_4532" x1="-12" y1="281.966" x2="409.178" y2="-16.4476" gradientUnits="userSpaceOnUse">
<stop stop-color="#030014"/>
<stop offset="1" stop-color="#030014" stop-opacity="0"/>
</linearGradient>
</defs>
</svg>
