<svg width="24" height="25" viewBox="0 0 24 25" fill="none" xmlns="http://www.w3.org/2000/svg">
<path d="M15 23.7271H9C3.57 23.7271 1.25 21.4071 1.25 15.9771V9.97705C1.25 4.54705 3.57 2.22705 9 2.22705H15C20.43 2.22705 22.75 4.54705 22.75 9.97705V15.9771C22.75 21.4071 20.43 23.7271 15 23.7271ZM9 3.72705C4.39 3.72705 2.75 5.36705 2.75 9.97705V15.9771C2.75 20.5871 4.39 22.2271 9 22.2271H15C19.61 22.2271 21.25 20.5871 21.25 15.9771V9.97705C21.25 5.36705 19.61 3.72705 15 3.72705H9Z" fill="white"/>
<path d="M12 17.2271C9.66 17.2271 7.75 15.3171 7.75 12.9771C7.75 10.6371 9.66 8.72705 12 8.72705C14.34 8.72705 16.25 10.6371 16.25 12.9771C16.25 15.3171 14.34 17.2271 12 17.2271ZM12 10.2271C10.48 10.2271 9.25 11.4571 9.25 12.9771C9.25 14.4971 10.48 15.7271 12 15.7271C13.52 15.7271 14.75 14.4971 14.75 12.9771C14.75 11.4571 13.52 10.2271 12 10.2271Z" fill="white"/>
<path d="M17 8.47695C16.87 8.47695 16.74 8.44695 16.62 8.39696C16.5 8.34696 16.39 8.27696 16.29 8.18695C16.2 8.08695 16.12 7.97696 16.07 7.85696C16.02 7.73696 16 7.60695 16 7.47695C16 7.34695 16.02 7.21695 16.07 7.09695C16.13 6.96695 16.2 6.86695 16.29 6.76695C16.34 6.72695 16.39 6.67696 16.44 6.64696C16.5 6.60696 16.56 6.57695 16.62 6.55695C16.68 6.52695 16.74 6.50695 16.81 6.49695C17.13 6.42695 17.47 6.53695 17.71 6.76695C17.8 6.86695 17.87 6.96695 17.92 7.09695C17.97 7.21695 18 7.34695 18 7.47695C18 7.60695 17.97 7.73696 17.92 7.85696C17.87 7.97696 17.8 8.08695 17.71 8.18695C17.61 8.27696 17.5 8.34696 17.38 8.39696C17.26 8.44695 17.13 8.47695 17 8.47695Z" fill="white"/>
</svg>
