<svg width="20" height="21" viewBox="0 0 20 21" fill="none" xmlns="http://www.w3.org/2000/svg">
<path d="M14.167 18.0605H5.83366C3.33366 18.0605 1.66699 16.8105 1.66699 13.8938V8.06047C1.66699 5.1438 3.33366 3.8938 5.83366 3.8938H14.167C16.667 3.8938 18.3337 5.1438 18.3337 8.06047V13.8938C18.3337 16.8105 16.667 18.0605 14.167 18.0605Z" stroke="white" stroke-width="1.2" stroke-miterlimit="10" stroke-linecap="round" stroke-linejoin="round"/>
<path d="M14.1663 8.47705L11.558 10.5604C10.6997 11.2437 9.29134 11.2437 8.433 10.5604L5.83301 8.47705" stroke="white" stroke-width="1.2" stroke-miterlimit="10" stroke-linecap="round" stroke-linejoin="round"/>
</svg>
