<svg width="20" height="21" viewBox="0 0 20 21" fill="none" xmlns="http://www.w3.org/2000/svg">
<path d="M11.6667 8.72656V11.1432H13.8333C14 11.1432 14.0833 11.3099 14.0833 11.4766L13.75 13.0599C13.75 13.1432 13.5833 13.2266 13.5 13.2266H11.6667V19.3099H9.16667V13.3099H7.75C7.58333 13.3099 7.5 13.2266 7.5 13.0599V11.4766C7.5 11.3099 7.58333 11.2266 7.75 11.2266H9.16667V8.47656C9.16667 7.0599 10.25 5.97656 11.6667 5.97656H13.9167C14.0833 5.97656 14.1667 6.0599 14.1667 6.22656V8.22656C14.1667 8.39323 14.0833 8.47656 13.9167 8.47656H11.9167C11.75 8.47656 11.6667 8.5599 11.6667 8.72656Z" stroke="white" stroke-miterlimit="10" stroke-linecap="round"/>
<path d="M12.4998 19.3092H7.49984C3.33317 19.3092 1.6665 17.6426 1.6665 13.4759V8.47591C1.6665 4.30924 3.33317 2.64258 7.49984 2.64258H12.4998C16.6665 2.64258 18.3332 4.30924 18.3332 8.47591V13.4759C18.3332 17.6426 16.6665 19.3092 12.4998 19.3092Z" stroke="white" stroke-linecap="round" stroke-linejoin="round"/>
</svg>
