<svg width="1920" height="1156" viewBox="0 0 1920 1156" fill="none" xmlns="http://www.w3.org/2000/svg">
<g opacity="0.23" filter="url(#filter0_f_874_3971)">
<path d="M404.322 493.442C262.649 674.958 372.171 849.499 642.322 1382.36C695.957 1488.15 1061.67 1161 1356.63 1382.36C1498.3 1200.84 1659.27 711.073 1477.67 569.336C1296.07 427.598 545.994 311.926 404.322 493.442Z" fill="url(#paint0_linear_874_3971)" fill-opacity="0.55"/>
</g>
<defs>
<filter id="filter0_f_874_3971" x="-57.8091" y="0.275391" width="2016.44" height="1803.79" filterUnits="userSpaceOnUse" color-interpolation-filters="sRGB">
<feFlood flood-opacity="0" result="BackgroundImageFix"/>
<feBlend mode="normal" in="SourceGraphic" in2="BackgroundImageFix" result="shape"/>
<feGaussianBlur stdDeviation="200" result="effect1_foregroundBlur_874_3971"/>
</filter>
<linearGradient id="paint0_linear_874_3971" x1="448.322" y1="644.442" x2="964.322" y2="1508.94" gradientUnits="userSpaceOnUse">
<stop stop-color="#4B7BEC"/>
<stop offset="0.535" stop-color="#2214C6"/>
<stop offset="1" stop-color="#090D6F"/>
</linearGradient>
</defs>
</svg>
