<?xml version="1.0" encoding="utf-8"?>
<!-- Generator: Adobe Illustrator 22.0.1, SVG Export Plug-In . SVG Version: 6.00 Build 0)  -->
<svg version="1.1" id="Layer_1" xmlns="http://www.w3.org/2000/svg" xmlns:xlink="http://www.w3.org/1999/xlink" x="0px" y="0px"
	 viewBox="0 0 875 87" style="enable-background:new 0 0 875 87;" xml:space="preserve">
<style type="text/css">
	.st0{opacity:0.83;fill:url(#SVGID_1_);fill-opacity:0.16;}
	.st1{fill:#FFFFFF;filter:url(#Adobe_OpacityMaskFilter);}
	.st2{mask:url(#path-1-inside-1_582_4042_1_);fill:url(#SVGID_2_);fill-opacity:0.7;}
</style>
<g>
	<feGaussianBlur  in="BackgroundImageFix" stdDeviation="8"></feGaussianBlur>
	
		<linearGradient id="SVGID_1_" gradientUnits="userSpaceOnUse" x1="432.6266" y1="133.1339" x2="444.1156" y2="-104.1081" gradientTransform="matrix(1 0 0 -1 0 76)">
		<stop  offset="0" style="stop-color:#DCDCDC;stop-opacity:0.9"/>
		<stop  offset="1" style="stop-color:#DDDDDD;stop-opacity:0.1"/>
	</linearGradient>
	<path shape-rendering="crispEdges" class="st0" d="M15,1h279.5c6.4,0,11.5,5.1,11.5,11.5S311.1,24,317.5,24S329,18.9,329,12.5
		S334.1,1,340.5,1H860c7.7,0,14,6.3,14,14v57c0,7.7-6.3,14-14,14H339c-5.5,0-10-4.5-10-10s-4.5-10-10-10h-3c-5.5,0-10,4.5-10,10
		s-4.5,10-10,10H15C7.3,86,1,79.7,1,72V15C1,7.3,7.3,1,15,1z"/>
	<defs>
		<filter id="Adobe_OpacityMaskFilter" filterUnits="userSpaceOnUse" x="0" y="0" width="875" height="87">
			<feColorMatrix  type="matrix" values="1 0 0 0 0  0 1 0 0 0  0 0 1 0 0  0 0 0 1 0"/>
		</filter>
	</defs>
	<mask maskUnits="userSpaceOnUse" x="0" y="0" width="875" height="87" id="path-1-inside-1_582_4042_1_">
		<path class="st1" d="M15,1h279.5c6.4,0,11.5,5.1,11.5,11.5S311.1,24,317.5,24S329,18.9,329,12.5S334.1,1,340.5,1H860
			c7.7,0,14,6.3,14,14v57c0,7.7-6.3,14-14,14H339c-5.5,0-10-4.5-10-10s-4.5-10-10-10h-3c-5.5,0-10,4.5-10,10s-4.5,10-10,10H15
			C7.3,86,1,79.7,1,72V15C1,7.3,7.3,1,15,1z"/>
	</mask>
	
		<linearGradient id="SVGID_2_" gradientUnits="userSpaceOnUse" x1="437.044" y1="139.5544" x2="437.9211" y2="-66.3547" gradientTransform="matrix(1 0 0 -1 0 76)">
		<stop  offset="0" style="stop-color:#FFFFFF;stop-opacity:0.44"/>
		<stop  offset="1" style="stop-color:#FFFFFF;stop-opacity:0.1"/>
	</linearGradient>
	<path class="st2" d="M294.5,0H15v2h279.5V0z M860,0H340.5v2H860V0z M875,15c0-8.3-6.7-15-15-15v2c7.2,0,13,5.8,13,13H875z M875,72
		V15h-2v57H875z M860,87c8.3,0,15-6.7,15-15h-2c0,7.2-5.8,13-13,13V87z M339,87h521v-2H339V87z M316,67h3v-2h-3V67z M15,87h281v-2
		H15V87z M0,72c0,8.3,6.7,15,15,15v-2C7.8,85,2,79.2,2,72H0z M0,15v57h2V15H0z M15,0C6.7,0,0,6.7,0,15h2C2,7.8,7.8,2,15,2V0z
		 M305,76c0,5-4,9-9,9v2c6.1,0,11-4.9,11-11H305z M330,76c0-6.1-4.9-11-11-11v2c5,0,9,4,9,9H330z M339,85c-5,0-9-4-9-9h-2
		c0,6.1,4.9,11,11,11V85z M330,12.5C330,6.7,334.7,2,340.5,2V0C333.6,0,328,5.6,328,12.5H330z M317.5,25c6.9,0,12.5-5.6,12.5-12.5
		h-2c0,5.8-4.7,10.5-10.5,10.5V25z M305,12.5c0,6.9,5.6,12.5,12.5,12.5v-2c-5.8,0-10.5-4.7-10.5-10.5H305z M316,65
		c-6.1,0-11,4.9-11,11h2c0-5,4-9,9-9V65z M294.5,2c5.8,0,10.5,4.7,10.5,10.5h2C307,5.6,301.4,0,294.5,0V2z"/>
</g>
</svg>
