<svg width="1893" height="1460" viewBox="0 0 1893 1460" fill="none" xmlns="http://www.w3.org/2000/svg">
<g filter="url(#filter0_f_874_5414)">
<path d="M1937.64 999.475C1937.64 769.216 1565.18 796.915 1203.1 445.167C1037.9 284.686 400 593.741 400 824C400 1054.26 797.175 727.328 1027.54 727.328C1257.9 727.328 1937.64 1229.73 1937.64 999.475Z" fill="url(#paint0_linear_874_5414)" fill-opacity="0.4"/>
</g>
<defs>
<filter id="filter0_f_874_5414" x="0" y="0.775391" width="2337.64" height="1459.09" filterUnits="userSpaceOnUse" color-interpolation-filters="sRGB">
<feFlood flood-opacity="0" result="BackgroundImageFix"/>
<feBlend mode="normal" in="SourceGraphic" in2="BackgroundImageFix" result="shape"/>
<feGaussianBlur stdDeviation="200" result="effect1_foregroundBlur_874_5414"/>
</filter>
<linearGradient id="paint0_linear_874_5414" x1="1810.05" y1="907.512" x2="871.375" y2="543.498" gradientUnits="userSpaceOnUse">
<stop stop-color="#4B7BEC"/>
<stop offset="0.535" stop-color="#2214C6"/>
<stop offset="1" stop-color="#090D6F"/>
</linearGradient>
</defs>
</svg>
