<?xml version="1.0" encoding="utf-8"?>
<!-- Generator: Adobe Illustrator 28.1.0, SVG Export Plug-In . SVG Version: 6.00 Build 0)  -->
<svg version="1.1" id="Layer_1" xmlns="http://www.w3.org/2000/svg" xmlns:xlink="http://www.w3.org/1999/xlink" x="0px" y="0px"
	 viewBox="0 0 300 105" style="enable-background:new 0 0 300 105;" xml:space="preserve">
<style type="text/css">
	.st0{fill:#FFFFFF;}
</style>
<path class="st0" d="M-1169.1,26.6h-27c-5.3,0-10.5,2.2-14.2,5.9c-3.7,3.7-5.8,8.8-5.8,14.1v12c0,5.3,2.1,10.3,5.8,14.1
	c3.8,3.8,8.9,5.9,14.2,5.9h27c5.3,0,10.4-2.2,14.2-5.9c3.7-3.7,5.8-8.7,5.8-14.1v-12c0-5.3-2.1-10.4-5.8-14.1
	C-1158.7,28.7-1163.9,26.6-1169.1,26.6z M-1161.4,35v35.1h-42.5V35H-1161.4z"/>
<path class="st0" d="M-1236.2,70.1h-10.9V55.7l-9.5-11.2l-10.5-12.7c-2.7-3.4-6.8-5.3-11.2-5.3c-7.9,0-14.3,6.5-14.3,14.4v37.5h12.4
	V35h10.9v14.2l20,24c2.7,3.4,6.8,5.3,11.1,5.3c7.9,0,14.3-6.5,14.3-14.4V26.6h-12.3V70.1z"/>
<path class="st0" d="M-1069.6,26.7l-20.4,40.5c-3.5,6.9-10.5,11.2-18.2,11.3h0c-7.7,0-14.7-4.3-18.2-11.3l-20.4-40.5h14l15.4,30.6
	l0.1,12.7h18.3l0.1-12.7l15.4-30.6H-1069.6z"/>
<path class="st0" d="M-1005,78.5h-14l-0.1-0.3l-15.2-30.4l-0.1-12.7h-18.3l-0.1,12.7l-15.2,30.4l-0.1,0.3h-14l20.4-40.5
	c3.5-6.9,10.5-11.2,18.2-11.3h0c7.7,0,14.7,4.3,18.2,11.3L-1005,78.5z"/>
<g>
	<g>
		<g>
			<path class="st0" d="M-956.2,72.3c3.4,3.3,8.1,5.2,13.6,5.6c0.9,0.1,1.9,0.1,2.9,0.1c5.8-0.1,10.9-1.2,15.1-3.2l0.5-0.2l-0.4-20
				l-11.7,1.5l0.3,11.4c-0.9,0.2-1.8,0.3-2.9,0.4c-3.2,0.1-5.9-0.9-7.8-2.8c-2-2-3.1-5-3.2-8.9c-0.2-7.6,3.6-12,10.5-12.2
				c4.1-0.1,7.2,0.8,11.3,3.3l1.1,0.7l1.1-11.2l-0.5-0.2c-3.3-1.5-7.3-2.9-14.2-2.8c-13.5,0.3-22.1,9.2-21.8,22.6
				C-962.4,63-960.2,68.5-956.2,72.3z"/>
			<path class="st0" d="M-830.3,33.8c-14.1-1.5-24.2,6.2-25.6,19.6c-1.5,13.5,6.5,23.1,20.3,24.6c1.6,0.2,3,0.2,4.3,0.2
				c4.4,0,7.4-0.8,10.1-1.8l0.5-0.2l1.2-11.4l-1.4,0.7c-3.7,1.9-8.6,2.7-13.2,2.2c-3.2-0.3-5.8-1.7-7.4-3.8c-1.8-2.3-2.5-5.4-2-9.3
				c0.4-3.9,1.8-6.8,4-8.7c2.2-1.7,5-2.4,8.5-2.1c4,0.4,7.1,1.8,10.7,4.8l1,0.8l3.2-10.9l-0.5-0.3
				C-819.7,36.4-823.5,34.5-830.3,33.8z"/>
			<polygon class="st0" points="-785,35.4 -784.3,49.8 -799.2,50.5 -799.9,33.6 -812.1,35.4 -810.2,78.4 -798.1,77.4 -798.8,60.6 
				-783.9,60 -783.1,78.3 -770.9,78.3 -771.7,33.5 			"/>
			<polygon class="st0" points="-751.6,33.7 -768.3,54.4 -753.6,78.3 -738.1,77.4 -754.6,54.7 -737.5,35.2 			"/>
			<polygon class="st0" points="-706.3,35.4 -706.1,59.2 -722.3,34.1 -733.9,33.7 -735.5,76.8 -723.2,77.2 -723.4,52.3 -707.2,77.8 
				-695.6,78.3 -694,34.5 			"/>
			<g>
				<polygon class="st0" points="-906,26.2 -913,22.5 -917.3,35.8 				"/>
				<polygon class="st0" points="-920.1,27.5 -920.1,35.8 -926.1,28.4 				"/>
			</g>
			<path class="st0" d="M-866.6,58v0.2c0,8.2-4,15.5-10.3,20.1c-2.1-8.2-5.1-19.5-5.1-19.6c0,0,3.7-1.6,5.2-4.2
				c1.5-2.5,1.5-6.7-1.9-8.6c-2.3,4.3-5.6,5.6-5.6,5.6c4.6-6.1,1.7-13.7-5.9-13c1.7,2.8,1,6.4-0.6,9.1c0.8-8.2-9.3-12.3-14.4-5.1
				c3.3,1,7.2,3.2,7.7,6.8c-2.6,2-3.2,5.2-3.2,5.2c-6.3-0.7-9.5,2.9-9.5,2.9s4.5,5.5,12.9,2.3c-4.5,6.4-11.8,3.5-12.6,2.9
				c0,0,0.5,4.3,4.5,5.9l-4.3,9.4c-6.1-4.6-10-11.8-10-19.8V58c0-14,11.9-25.4,26.6-25.4C-878.5,32.6-866.6,44-866.6,58z"/>
		</g>
	</g>
</g>
<g>
	<g>
		<g>
			<g>
				<g>
					<g>
						<g>
							<g>
								<g>
									<g>
										<g>
											<g>
												<path class="st0" d="M-227.4,29.6c-1.9-1.8-4.7-2.8-8.4-2.8h-13.7v34.1h6.3V48h7.4c3.7,0,6.5-0.9,8.4-2.8
													s2.9-4.4,2.9-7.8S-225.5,31.4-227.4,29.6z M-232.1,41.1c-0.9,0.9-2.2,1.4-3.9,1.4h-7.2V32.2h7.2c1.7,0,3,0.4,3.9,1.4
													c0.9,0.9,1.3,2.2,1.3,3.8C-230.8,39-231.2,40.2-232.1,41.1z"/>
												<path class="st0" d="M-186.9,26.8v34.1h6.3V26.8H-186.9z"/>
												<path class="st0" d="M-142.4,26.8l-11.3,28l-11-28h-7.6v34.1h6.3V36.9l9.1,24.1h6.3l9.5-24.1v24.1h6.3V26.8H-142.4z"/>
												<path class="st0" d="M-106,32.2v-5.4h-21.3v34.1h21.3v-5.4h-15v-9.2h13.7v-5H-121v-9.1H-106z"/>
												<path class="st0" d="M-48,47.3c-0.7-1.2-1.5-2.1-2.6-2.9c-1.1-0.8-2.3-1.4-3.6-1.9c-1.3-0.5-2.6-0.9-3.8-1.3
													c-0.9-0.3-1.9-0.6-3-1c-1.1-0.4-2-0.9-2.7-1.6c-0.8-0.7-1.1-1.5-1.1-2.5c0-0.9,0.2-1.6,0.7-2.2c0.4-0.6,1.1-1.1,1.9-1.4
													c0.8-0.3,1.7-0.5,2.7-0.5c1.2,0,2.3,0.2,3.1,0.7c0.9,0.4,1.5,1.1,2,1.8c0.5,0.8,0.7,1.7,0.7,2.8h6.2
													c0-2.2-0.5-4.1-1.6-5.7c-1-1.6-2.5-2.9-4.4-3.7c-1.9-0.9-4.1-1.3-6.6-1.3c-2.1,0-3.9,0.4-5.6,1.1c-1.7,0.8-3,1.8-4,3.3
													c-1,1.4-1.5,3.2-1.5,5.2c0,1.7,0.3,3.1,1,4.2c0.7,1.2,1.6,2.1,2.7,2.9c1.1,0.8,2.3,1.4,3.6,1.9c1.3,0.5,2.6,0.9,3.9,1.3
													c0.9,0.3,1.9,0.6,2.9,0.9c1,0.4,1.9,0.9,2.6,1.5c0.7,0.6,1.1,1.5,1.1,2.5c0,0.9-0.3,1.7-0.8,2.4
													c-0.5,0.6-1.2,1.1-2.1,1.4c-0.9,0.3-1.9,0.5-3,0.5c-1.4,0-2.6-0.2-3.6-0.7c-1-0.4-1.8-1.1-2.3-1.9s-0.8-1.9-0.8-3.2
													h-6.2c0,2.4,0.6,4.5,1.7,6.2c1.1,1.7,2.6,2.9,4.6,3.8c2,0.8,4.2,1.3,6.8,1.3c1.5,0,2.9-0.2,4.3-0.6
													c1.4-0.4,2.7-1,3.8-1.8c1.1-0.8,2-1.8,2.7-3c0.7-1.2,1-2.7,1-4.3C-47,49.9-47.3,48.5-48,47.3z"/>
											</g>
										</g>
										<path class="st0" d="M-200.6,47.4c1.6-0.4,2.9-1.2,3.9-2.2c1.9-1.9,2.9-4.5,2.9-7.8c0-3.4-1-6-2.9-7.8
											c-1.9-1.9-4.7-2.8-8.4-2.8h-13.7v34.1h6.3V32.2h7.2c1.7,0,3,0.4,3.9,1.4c0.9,0.9,1.3,2.2,1.3,3.8c0,1.6-0.4,2.8-1.3,3.8
											c-0.9,0.9-2.2,1.4-3.9,1.4h-5l3.5,5.4l8.5,12.9h7.1L-200.6,47.4z"/>
										<path class="st0" d="M-83.2,47.4c1.6-0.4,2.9-1.2,3.9-2.2c1.9-1.9,2.9-4.5,2.9-7.8c0-3.4-1-6-2.9-7.8
											c-1.9-1.9-4.7-2.8-8.4-2.8h-13.7v34.1h6.3V32.2h7.2c1.7,0,3,0.4,3.9,1.4c0.9,0.9,1.3,2.2,1.3,3.8c0,1.6-0.4,2.8-1.3,3.8
											c-0.9,0.9-2.2,1.4-3.9,1.4h-5l3.5,5.4l8.5,12.9h7.1L-83.2,47.4z"/>
									</g>
								</g>
							</g>
						</g>
					</g>
				</g>
			</g>
		</g>
		<g>
			<path class="st0" d="M-249.5,78.6v-9.4h3.6c0.9,0,1.6,0.2,2.1,0.7c0.5,0.5,0.8,1.2,0.8,2c0,0.9-0.3,1.5-0.8,2
				c-0.5,0.5-1.2,0.7-2.1,0.7h-2.3v3.8H-249.5z M-248.2,73.7h2.3c0.6,0,1-0.2,1.3-0.5c0.3-0.3,0.4-0.7,0.4-1.3
				c0-0.5-0.1-0.9-0.4-1.2c-0.3-0.3-0.7-0.5-1.3-0.5h-2.3V73.7z M-242.5,78.6h-1.3l-2.3-4.5h1.1L-242.5,78.6z"/>
			<path class="st0" d="M-235.2,78.6v-9.4h1.2v9.4H-235.2z"/>
			<path class="st0" d="M-225,75.8c0,0.4,0.1,0.7,0.3,1c0.2,0.3,0.5,0.5,0.8,0.6c0.3,0.1,0.7,0.2,1.1,0.2c0.4,0,0.7-0.1,1-0.2
				c0.3-0.1,0.5-0.3,0.7-0.5c0.2-0.2,0.3-0.5,0.3-0.8c0-0.4-0.1-0.6-0.3-0.8c-0.2-0.2-0.5-0.4-0.8-0.5s-0.7-0.2-1-0.3
				c-0.4-0.1-0.7-0.2-1.1-0.4c-0.4-0.1-0.7-0.3-1-0.5c-0.3-0.2-0.5-0.5-0.7-0.8c-0.2-0.3-0.3-0.7-0.3-1.1c0-0.5,0.1-1,0.4-1.4
				c0.3-0.4,0.6-0.7,1.1-0.9c0.5-0.2,1-0.3,1.5-0.3c0.6,0,1.2,0.1,1.7,0.4c0.5,0.2,0.9,0.6,1.2,1c0.3,0.4,0.4,0.9,0.4,1.5h-1.2
				c0-0.4-0.1-0.7-0.3-0.9c-0.2-0.3-0.4-0.5-0.7-0.6c-0.3-0.1-0.6-0.2-1-0.2c-0.4,0-0.7,0.1-0.9,0.2c-0.3,0.1-0.5,0.3-0.7,0.5
				s-0.2,0.5-0.2,0.8c0,0.3,0.1,0.6,0.3,0.8c0.2,0.2,0.5,0.4,0.9,0.5c0.3,0.1,0.7,0.2,1,0.4c0.4,0.1,0.7,0.2,1.1,0.4
				c0.4,0.1,0.7,0.3,1,0.5c0.3,0.2,0.5,0.5,0.7,0.8c0.2,0.3,0.3,0.7,0.3,1.1s-0.1,0.8-0.3,1.1c-0.2,0.3-0.4,0.6-0.7,0.8
				c-0.3,0.2-0.6,0.4-1,0.5c-0.4,0.1-0.8,0.2-1.2,0.2c-0.7,0-1.2-0.1-1.8-0.3c-0.5-0.2-0.9-0.5-1.3-1c-0.3-0.4-0.5-1-0.5-1.6H-225z"
				/>
			<path class="st0" d="M-204.9,69.2l-4,4.7l4,4.7h-1.5l-3.5-4.3h-0.8v4.3h-1.2v-9.4h1.2v4.2h0.8l3.6-4.2H-204.9z"/>
			<path class="st0" d="M-189.7,78.6v-9.4h1.6l3.3,8.3l3.6-8.3h1.6v9.4h-1.2V71l-3.2,7.6h-1.4l-3-7.6v7.6H-189.7z"/>
			<path class="st0" d="M-171.5,78.6h-1.3l3.5-9.4h1.4l3.5,9.4h-1.3l-0.9-2.5h-4L-171.5,78.6z M-166.9,75.1l-1.7-4.6l-1.7,4.6
				H-166.9z"/>
			<path class="st0" d="M-150.4,69.2v9.4h-1.3l-4.6-7.5v7.5h-1.2v-9.4h1.3l4.6,7.5v-7.5H-150.4z"/>
			<path class="st0" d="M-142.2,78.6h-1.3l3.5-9.4h1.4l3.5,9.4h-1.3l-0.9-2.5h-4L-142.2,78.6z M-137.6,75.1l-1.7-4.6l-1.7,4.6
				H-137.6z"/>
			<path class="st0" d="M-120.7,73.7v3.5c-0.3,0.3-0.6,0.6-0.9,0.8c-0.4,0.2-0.8,0.4-1.3,0.5c-0.5,0.1-1,0.2-1.5,0.2
				c-0.9,0-1.7-0.2-2.3-0.6c-0.7-0.4-1.2-0.9-1.5-1.6c-0.4-0.7-0.5-1.6-0.5-2.6c0-1,0.2-1.8,0.5-2.5c0.3-0.7,0.8-1.3,1.5-1.7
				c0.6-0.4,1.4-0.6,2.2-0.6c0.8,0,1.6,0.2,2.2,0.7c0.6,0.4,1.1,1.1,1.4,1.8l-1,0.4c-0.2-0.6-0.5-1-1-1.3c-0.4-0.3-1-0.5-1.6-0.5
				c-0.9,0-1.6,0.3-2.2,1c-0.5,0.7-0.8,1.6-0.8,2.8c0,1.2,0.3,2.1,0.8,2.8c0.5,0.6,1.3,0.9,2.4,0.9c0.3,0,0.6,0,0.9-0.1
				c0.3-0.1,0.6-0.1,0.9-0.3c0.3-0.1,0.5-0.2,0.6-0.3v-2.2h-2.8v-1H-120.7z"/>
			<path class="st0" d="M-107.5,78.6h-5.6v-9.4h5.6v1.1h-4.4v3.1h4v1h-4v3.1h4.4V78.6z"/>
			<path class="st0" d="M-100.3,78.6v-9.4h1.6l3.3,8.3l3.6-8.3h1.6v9.4h-1.2V71l-3.2,7.6h-1.4l-3-7.6v7.6H-100.3z"/>
			<path class="st0" d="M-76.5,78.6h-5.6v-9.4h5.6v1.1h-4.4v3.1h4v1h-4v3.1h4.4V78.6z"/>
			<path class="st0" d="M-62.2,69.2v9.4h-1.3l-4.6-7.5v7.5h-1.2v-9.4h1.3l4.6,7.5v-7.5H-62.2z"/>
			<path class="st0" d="M-51.5,78.6v-8.4h-3.3v-1.1h7.8v1.1h-3.3v8.4H-51.5z"/>
		</g>
	</g>
	<g>
		<path class="st0" d="M-265.1,52v12.6l-19,2.8c-1.9,0.3-3.5,1.2-4.6,2.5c-1.1,1.3-1.8,3.1-1.8,4.9l-25.8,3.7V66.5l22.4-3.2
			c2-0.3,3.5-2,3.5-4v-3.5L-265.1,52z"/>
		<path class="st0" d="M-265.1,26.8v12.6l-19.4,2.8c-1.9,0.3-3.5,1.2-4.6,2.5c-1.2,1.3-1.8,3.1-1.8,4.9l-25.4,3.7V41.3l22-3.2
			c2-0.3,3.5-2,3.5-4v-3.5L-265.1,26.8z"/>
	</g>
</g>
<g>
	<path class="st0" d="M93.8,42.8c0,3.6-2.3,6.3-8.2,6.3H74.8V27.4h9.5c6.3,0,8.3,2.5,8.3,6c0,2.2-1.6,3.8-2,4.2
		C92.6,38.6,93.8,40.5,93.8,42.8z M87.5,34c0-1.5-1-2.2-3-2.2H80v4.5h4.5C86.8,36.4,87.5,35.7,87.5,34z M84.9,40.4H80v4.2h4.9
		c2.1,0,3.2-0.7,3.2-2.1C88.1,40.9,87,40.4,84.9,40.4z"/>
	<path class="st0" d="M115.7,35.6c0,3.1-1.5,5.8-3.9,7l4.5,6.6h-6.5l-3.3-5.4h-3.8v5.4h-5.3V27.4H108
		C112.4,27.4,115.7,30.8,115.7,35.6z M102.7,32.3v6.6h4.5c1.8,0,3.2-1.5,3.2-3.3c0-1.8-1.4-3.3-3.2-3.3H102.7z"/>
	<path class="st0" d="M136.3,45.8h-10.5l-1.4,3.4h-5.6l9.3-21.8h5.9l9.4,21.8h-5.6L136.3,45.8z M134.5,41.5l-3.4-8.1l-3.5,8.1H134.5
		z"/>
	<path class="st0" d="M168.2,49.2h-5.3l-11-13.3v13.3h-5.3V27.4h5.3l11,13.3V27.4h5.3V49.2z"/>
	<path class="st0" d="M193.9,38.2c0,6.3-4.7,10.9-11.5,10.9h-9.6V27.4l9.6,0C189.6,27.4,193.9,32,193.9,38.2z M178,44.3h4.4
		c3.7,0,6.2-2.4,6.2-6.1c0-3.9-2.5-6-6.2-6H178V44.3z"/>
	<path class="st0" d="M214.5,34.3h-5.2c0-1.1-1.3-2.6-3.5-2.6c-1.6,0-3.5,0.7-3.5,2c0,1.1,1.4,1.5,4.5,2.3c3.4,0.9,8.3,2.1,8.3,6.9
		c0,4.2-3.7,6.8-8.7,6.8c-6.8,0-9.7-4.6-9.7-8h5.2c0,0,0.4,3.5,4.7,3.5c2.3,0,3.2-1,3.2-1.9c0-1.4-1.8-1.9-3.8-2.3
		c-3.3-0.8-9-2-9-6.8c0-4,3.9-6.9,8.9-6.9C211.5,27,214.5,30.9,214.5,34.3z"/>
	<path class="st0" d="M93.8,72.1c0,3.6-2.3,6.3-8.2,6.3H74.8V56.7h9.5c6.3,0,8.3,2.5,8.3,6c0,2.2-1.6,3.8-2,4.2
		C92.6,67.9,93.8,69.8,93.8,72.1z M87.5,63.3c0-1.5-1-2.2-3-2.2H80v4.5h4.5C86.8,65.7,87.5,65,87.5,63.3z M84.9,69.7H80v4.2h4.9
		c2.1,0,3.2-0.7,3.2-2.1C88.1,70.2,87,69.7,84.9,69.7z"/>
	<path class="st0" d="M111.8,75.1h-10.5l-1.4,3.4h-5.6l9.3-21.8h5.9l9.4,21.8h-5.6L111.8,75.1z M109.9,70.8l-3.4-8.1l-3.5,8.1H109.9
		z"/>
	<path class="st0" d="M143.6,78.5h-5.3l-11-13.3v13.3H122V56.7h5.3l11,13.3V56.7h5.3V78.5z"/>
	<path class="st0" d="M160.9,65.5l9.1,13h-6.8l-6-9l-3.7,4.1v4.9h-5.3V56.7h5.3v9.6l8.3-9.6h6.6L160.9,65.5z"/>
</g>
<circle class="st0" cx="177.6" cy="74.1" r="4.9"/>
<g>
	<path class="st0" d="M577.7,27.9h-0.5c-3.1,0-5.6,2.5-5.6,5.6v23.2c0,2.7-1.1,4.8-3.3,6.5c-2.2,1.7-4.7,2.5-7.7,2.5
		c-3,0-5.6-0.9-7.8-2.7c-2.2-1.8-3.4-4-3.4-6.7V33.4c0-3.1-2.5-5.6-5.6-5.6c-3.1,0-5.6,2.5-5.6,5.6v4.3c2.1,3.4,3.1,7.2,3.1,11.5
		v18.2c0.9,1.4,2,2.7,3.3,4c4.3,4,9.5,6.1,15.7,6.1c5.4,0,10.5-2,15.2-6.1c5-4.3,7.6-9.4,7.6-15.2V33.4
		C583.3,30.4,580.8,27.9,577.7,27.9z"/>
	<path class="st0" d="M440.6,75.6c-0.1,0.1-0.2,0.2-0.3,0.3c-1,1-2.3,1.6-3.8,1.6h-18.7c-1.5,0-2.8-0.6-3.8-1.6
		c-1-1-1.6-2.3-1.6-3.8V32.8c0-3,2.4-5.4,5.4-5.4c3,0,5.4,2.4,5.4,5.4v33.8h6.1c2.6,3.9,6.1,6.8,10.7,8.7
		C440.2,75.4,440.4,75.5,440.6,75.6z"/>
	<path class="st0" d="M538.4,56.5V37.8c-0.9-1.5-2-2.9-3.4-4.3c-4.3-4.4-9.5-6.5-15.6-6.5c-6.2,0-11.6,2.2-16,6.5
		c-4.4,4.3-6.6,9.6-6.6,15.7v17.6l1.5,2.6c1.1,1.9,0.8,4.1-0.4,5.6c1,1.4,2.7,2.4,4.6,2.4c3.2,0,5.7-2.6,5.7-5.7v-23
		c0-2.8,1-5.2,3.1-7.2c2.1-2,4.6-3,7.5-3c3,0,5.6,1,7.8,3c2.2,2,3.3,4.5,3.3,7.3v22.8c0,3.2,2.6,5.7,5.7,5.7h0.1
		c3.2,0,5.7-2.6,5.7-5.7v-4.3C539.5,64.2,538.4,60.6,538.4,56.5z"/>
	<path class="st0" d="M541.6,49.3v18.2c-2.1-3.2-3.1-6.8-3.1-10.9V37.8C540.5,41.2,541.6,45,541.6,49.3z"/>
	<path class="st0" d="M493.6,31.1h-0.5c-1.9,0-3.6,1-4.5,2.6l-10.7,18.3h-0.9V32.8c0-1.4-0.6-2.7-1.5-3.7c-0.9-0.9-2.2-1.5-3.7-1.5
		c-2.9,0-5.2,2.3-5.2,5.2v0.7c3,2.8,4.9,6.4,6.6,10.5c0.5,1.3,0.8,2.5,1.1,3.8l-7.7,3v21.5c0,1.4,0.6,2.7,1.5,3.7
		c0.9,0.9,2.2,1.5,3.7,1.5c2.9,0,5.2-2.3,5.2-5.2V56.1h0.8l11.1,18.6c0.9,1.6,2.6,2.5,4.5,2.5h0.3c1.8,0,3.3-0.9,4.2-2.1
		c-0.7-0.9-1.1-2.1-1.1-3.4v-4.9l-7.3-13.1l8.6-14.8C500.2,35.4,497.7,31.1,493.6,31.1z"/>
	<path class="st0" d="M497.9,75.1c-0.7-0.9-1.1-2.1-1.1-3.4v-4.9l1.5,2.6C499.4,71.4,499.1,73.5,497.9,75.1z"/>
	<path class="st0" d="M466.6,33.5c-1.6-1.5-3.5-2.8-5.9-3.8c-6.5-2.9-13-3.2-19.3-0.9l-0.1,0c-0.2,0.1-0.3,0.1-0.5,0.2
		c-6.5,2.5-11.1,6.9-13.8,13.3c-2.8,6.4-2.9,12.8-0.4,19.3c0,0.1,0.1,0.2,0.1,0.3c0.5,1.3,1.1,2.4,1.7,3.6c0.2,0.4,0.5,0.8,0.7,1.2
		h7.2c3,0,5.4,2.4,5.4,5.4c0,1.3-0.5,2.6-1.3,3.5c3,1.2,6,1.8,9.1,1.9h0.1c2.2,0,4.4-0.3,6.6-0.8c0.2-0.1,0.4-0.1,0.7-0.2
		c0.6-0.2,1.3-0.4,1.9-0.6c0.2-0.1,0.3-0.1,0.5-0.2l-3.8-9.8c-0.1,0-0.2,0.1-0.3,0.1c-3.4,1.3-6.7,1.4-9.9,0.4
		c-0.5-0.1-0.9-0.3-1.4-0.5c-2.1-0.9-3.9-2.3-5.4-4.2l28-10.8V33.5z M443.3,50.5L443.3,50.5c-0.6-1.6-2.3-2.3-3.8-1.8
		c-1.5,0.6-2.3,2.3-1.7,3.8c0,0,0,0.1,0,0.1l-2.8,1.1l0-0.1c-1.2-3.1,0.3-6.5,3.4-7.7c3.1-1.2,6.5,0.3,7.7,3.4c0,0,0,0.1,0,0.1
		L443.3,50.5z M458.6,44.5C458.6,44.5,458.6,44.5,458.6,44.5c-0.6-1.6-2.3-2.3-3.8-1.8c-1.5,0.6-2.3,2.3-1.7,3.8l0,0.1l-2.8,1.1
		c0,0,0-0.1,0-0.1c-1.2-3.1,0.3-6.5,3.4-7.7c3.1-1.2,6.5,0.3,7.7,3.4l0,0.1L458.6,44.5z"/>
	<path class="st0" d="M441.9,72.1c0,1.3-0.5,2.6-1.3,3.5c-0.2-0.1-0.4-0.2-0.6-0.2c-4.6-1.9-8.2-4.8-10.7-8.7h7.2
		C439.4,66.7,441.9,69.1,441.9,72.1z"/>
	<path class="st0" d="M474.3,47.8l-7.7,3V33.5c3,2.8,4.9,6.4,6.6,10.5C473.7,45.3,474,46.6,474.3,47.8z"/>
</g>
<g>
	<g>
		<path class="st0" d="M1011.3,66l-0.8,0.5c-1.9,1.2-4.8,1.8-6.7,1.8c-3.9,0-6.5-2.1-7.2-5.5c-0.1-0.5-0.2-0.9-0.2-1.4
			c0-0.6,0-1.3,0.1-2.1l1.8-16h-2.3c-0.5-1.9-1.3-3.6-2.3-5.1h5.2l1-7.4c0-0.1,0.1-0.1,0.1-0.1h4.6c0,0,0.1,0,0.1,0.1l-0.8,7.4h9.2
			c0.1,0,0.1,0,0.1,0.1l-0.5,4.9c0,0.1-0.1,0.1-0.1,0.1h-9.2l-1.7,15.5c-0.3,2.7,1,4.4,3.3,4.4c1.5,0,3.4-0.5,4.4-1.1l1.4-0.8
			L1011.3,66z"/>
		<path class="st0" d="M810.3,57.3c-0.7,6.6-6.4,10.9-14.2,10.9c-5.1,0-10-2.1-13-5.6l-0.6-0.7l3-4.5l0.9,1
			c2.7,2.9,6.4,4.6,10.4,4.6c4.6,0,7.8-2.2,8.2-5.5c0.4-3.2-1.3-4.5-7.7-6.1c-6.2-1.5-11.9-3.9-11.1-11.2
			c0.7-6.4,6.3-10.7,13.9-10.7c4.2,0,8,1.4,11.1,4.1l0.8,0.7l-3.2,4c-0.1,0.1-0.3,0.2-0.4,0.1l-0.3-0.3c-2.4-2.1-5.5-3.4-8.8-3.4
			c-4.5,0-7.5,2.1-7.9,5.6c-0.3,2.7,0.8,4.4,7.7,6.1C806.8,48.2,811,50.6,810.3,57.3z"/>
		<path class="st0" d="M830.3,37.6c-3.7,0-7.2,1.5-10,4l0.4-3.4c0-0.1,0-0.1-0.1-0.1h-4.9c-0.1,0-0.1,0-0.1,0.1l-4.2,38.1
			c0,0,0,0.1,0.1,0.1h4.9c0.1,0,0.1,0,0.1-0.1l1.3-12.1c2.1,2.5,5.3,4,9.1,4c7.8,0,14.2-6.4,15.1-15.3
			C842.9,44.2,837.9,37.6,830.3,37.6z M837,53c-0.7,6-4.8,10.1-9.9,10.1c-5.4,0-8.7-4.2-8-10.1c0.7-6,4.9-10.2,10.2-10.2
			C834.5,42.8,837.6,47,837,53z"/>
		<path class="st0" d="M867.1,40c-2-1.6-4.4-2.3-7-2.3c-8.2,0-14.7,6.3-15.6,15.3c-1,8.9,4.3,15.3,12.6,15.3c4.2,0,8.1-1.7,11.2-4.9
			l0.9-0.9L866,59l-0.9,0.9c-2.1,2.1-4.5,3.1-7.5,3.1c-4.8,0-8-3.1-8.3-7.8c0-0.1,0.1-0.1,0.1-0.1h21.1c0.1,0,0.1,0,0.1-0.1l0.3-1.5
			C871.9,48.4,870.7,43,867.1,40z M866.2,50.2h-16c-0.1,0-0.1-0.1-0.1-0.1c1.4-4.5,4.9-7.3,9.4-7.3c4.1,0,6.6,2.7,6.9,7.3
			C866.3,50.2,866.2,50.2,866.2,50.2z"/>
		<path class="st0" d="M887,37.6c-3.8,0-7.7,1.4-10.9,3.9l-0.9,0.7l2.2,4.3l1-0.8c2.2-1.8,5-2.8,7.7-2.8c4.5,0,6.5,2.2,6,6.7l0,0
			c-2.4-0.3-5-0.5-7.6-0.5c-6.9,0-11.4,3.6-12,9.7c-0.6,5.8,2.8,9.5,8.8,9.5c3.8,0,7-1.8,9.2-3.9l-0.4,3.3c0,0.1,0,0.1,0.1,0.1h4.8
			c0,0,0.1,0,0.1-0.1l2-18.2C898.1,41.8,894.5,37.6,887,37.6z M891.6,55.1c0,0.2,0,0.3-0.1,0.5c-0.9,3.7-4.5,7.5-8.8,7.5
			c-2.6,0-5.7-0.8-5.3-4.5c0.1-1.1,0.5-4.6,7.1-4.6c2.5,0,4.7,0.2,7.1,0.5L891.6,55.1z"/>
		<path class="st0" d="M925.8,67.8h-6.1c0,0,0,0-0.1,0l-9.4-13.3l-5.6,5.3l-0.9,7.9c0,0.1,0,0.1-0.1,0.1h-4.9c0,0-0.1,0-0.1-0.1
			l4.3-39.6c0-0.1,0.1-0.1,0.1-0.1h4.9c0.1,0,0.1,0,0.1,0.1l-2.7,24.7l15.4-14.6h6.9L914.1,51l11.8,16.7
			C926,67.7,925.9,67.8,925.8,67.8z"/>
		<path class="st0" d="M963.3,30l-4.1,37.7c0,0.1-0.1,0.1-0.1,0.1h-3.9c0,0-0.1,0-0.1,0l-17.5-27.7c0-0.1-0.2,0-0.2,0.1l-3,27.6
			c0,0.1-0.1,0.1-0.1,0.1h-5c-0.1,0-0.1,0-0.1-0.1l4.1-37.7c0-0.1,0.1-0.1,0.1-0.1h4c0,0,0.1,0,0.1,0L955,57.5c0,0.1,0.2,0,0.2-0.1
			l3-27.4c0-0.1,0.1-0.1,0.1-0.1h4.9C963.3,29.9,963.3,30,963.3,30z"/>
		<path class="st0" d="M986.4,40c-2-1.6-4.4-2.3-7-2.3c-8.2,0-14.7,6.3-15.6,15.3c-1,8.9,4.3,15.3,12.6,15.3c4.2,0,8.1-1.7,11.2-4.9
			l0.9-0.9l-3.1-3.4l-0.9,0.9c-2.1,2.1-4.5,3.1-7.5,3.1c-4.8,0-8-3.1-8.3-7.8c0-0.1,0-0.1,0.1-0.1h21.1c0,0,0.1,0,0.1-0.1l0.3-1.5
			C991.3,48.4,990.1,43,986.4,40z M985.6,50.2h-16c-0.1,0-0.1-0.1-0.1-0.1c1.4-4.5,4.9-7.3,9.4-7.3c4.1,0,6.6,2.7,6.8,7.3
			C985.7,50.2,985.6,50.2,985.6,50.2z"/>
	</g>
	<g>
		<path class="st0" d="M777.1,41.7c0,0,0-0.1,0-0.1c0-0.1,0-0.2,0-0.3c-0.4-3.4-1.9-6.5-4.1-8.8c-2.5-2.7-5.9-4.4-9.8-4.5
			c-0.1,0-0.1,0-0.1,0h-18c-4,0-7.5,1.7-10.1,4.5c-2.6,2.8-4.2,6.6-4.2,10.8v31.9c0,0.6,0.2,1.2,0.6,1.6c0.4,0.4,0.9,0.6,1.5,0.6
			h30.2c0.7,0,1.4-0.1,2.1-0.2c0.2,0,0.3-0.1,0.5-0.1c5.9-1.3,10.6-6.5,11.3-13c0,0,0-0.1,0-0.1c0-0.5,0.1-1,0.1-1.5V42.9
			C777.1,42.5,777.1,42.1,777.1,41.7z M739.8,71.5c-2,0-3.6-1.7-3.6-3.8c0-2.1,1.6-3.8,3.6-3.8s3.6,1.7,3.6,3.8
			C743.3,69.8,741.7,71.5,739.8,71.5z M749.3,56.5c0,1.1-0.9,2-2,2h-0.3c-1.1,0-2-0.9-2-2v-7.7c0-1.1,0.9-2,2-2h0.3c1.1,0,2,0.9,2,2
			V56.5z M756.1,60.1c0,1.1-0.9,2-2,2h-0.3c-1.1,0-2-0.9-2-2V45.2c0-1.1,0.9-2,2-2h0.3c1.1,0,2,0.9,2,2V60.1z M762.8,56.5
			c0,1.1-0.9,2-2,2h-0.3c-1.1,0-2-0.9-2-2v-7.7c0-1.1,0.9-2,2-2h0.3c1.1,0,2,0.9,2,2V56.5z"/>
	</g>
</g>
<g>
	<path class="st0" d="M1190,28.9v7.5h4.6v-7.5H1190z M1177.4,36.3h4.6v-7.5h-4.6V36.3z"/>
	<path class="st0" d="M1220.1,31.9c-2.4-2.5-5.3-3.7-8.7-3.7c-2.2,0-4.3,0.6-6.3,1.7c-1.9,1.1-3.5,2.6-4.6,4.6
		c-0.7,1.3-1.2,2.7-1.5,4.1h-21.7V51h4.6v-7.9h8V51h4.6V43h4.5c0.4,2.5,1.5,4.7,3.4,6.6c2.4,2.5,5.4,3.7,9,3.7
		c3.4,0,6.3-1.2,8.8-3.6c2.4-2.4,3.6-5.4,3.6-8.9C1223.8,37.4,1222.6,34.4,1220.1,31.9z M1216.9,46.7c-1.5,1.6-3.4,2.3-5.5,2.3
		c-1.9,0-3.6-0.6-5.1-1.8c-1.9-1.5-2.8-3.6-2.8-6.3c0-2.4,0.8-4.3,2.3-5.9c1.5-1.5,3.4-2.3,5.6-2.3c2.2,0,4.1,0.8,5.6,2.4
		c1.5,1.6,2.3,3.5,2.3,5.8C1219.2,43.2,1218.5,45.1,1216.9,46.7z"/>
	<path class="st0" d="M1230.4,28.9h4.4l5.5,16.7l5.6-16.7h4.4l4,23.9h-4.4l-2.6-15.1l-5.1,15.1h-4l-5-15.1l-2.6,15.1h-4.4
		L1230.4,28.9z"/>
	<path class="st0" d="M1258.1,28.9h13.1v4.5h-8.5v5.3h8.5V43h-8.5v5.3h8.5v4.5h-13.1V28.9z"/>
	<path class="st0" d="M1177.4,58.1h3.8V65l5.4-6.9h4.5l-6.9,8.9l7.6,11h-4.5l-6.1-8.8V78h-3.8V58.1z"/>
	<path class="st0" d="M1194.5,58.1h10.9v3.7h-7.1v4.4h7.1v3.6h-7.1v4.4h7.1V78h-10.9V58.1z"/>
	<path class="st0" d="M1207.6,58.1h4.1l3.7,7.2l3.7-7.2h4l-5.8,11.3V78h-3.8v-8.6L1207.6,58.1z"/>
</g>
<g>
	
		<text transform="matrix(0.992 0 0.1262 0.992 1527.0558 66.3268)" class="st0" style="font-family:'Kanit-Italic'; font-size:31.9135px;">Digital livs</text>
	<g>
		<path class="st0" d="M1523.1,60.5c-0.2,0.7-0.4,1.4-0.6,2.2c-1.3,4-3.8,8.1-7.9,11c1.8-1.7,3.7-6.1,1.1-8.4
			c-3.9-3.3-7.1-0.9-7.6-0.7c1.9-1.7,3-3.9,3.4-6.1c0.4-2.3,0-4.6-1-6.5c-1.5-2.9-4.8-5.1-8.8-5.9c-2.9-0.6-6.3-0.4-9.7,0.8
			c-8.1,2.9-10.9-2.8-6.9-6.2c2.8-2.5,7.4-5.4,14.2-5.4l0,0c4.9,0.2,5.2,1.5,9.7,3.4c3.9,1.6,8.8,1.3,12.1,5.6
			C1525.6,50.2,1524,56.5,1523.1,60.5z"/>
		<path id="XMLID_23_" class="st0" d="M1514.7,73.6c-0.3,0.2-0.6,0.4-0.9,0.6c-2.6,1.6-5.9,2.8-9.9,3.3c-8.4,0.9-15.8-0.8-18.1-11.9
			c0,0-1.5-8.6,1.3-12.7c3.2-4.7,10.6-4.3,10.8,2.6c0.3,6.9-1.3,14,6.1,11.5c1.7-0.6,3-1.4,4.1-2.4c0,0,0,0,0,0
			c0.3-0.2,3.7-2.7,7.6,0.6C1518.4,67.5,1516.5,71.9,1514.7,73.6z"/>
		<g>
			<path class="st0" d="M1511.6,33.7c-1.3,0.9-2.4,2.1-3.2,3.5c-3.1-1.7-5.1-4.6-5.8-7.8c1.7-0.6,3.6-0.5,5.3,0.3
				C1509.7,30.5,1511,32,1511.6,33.7z"/>
			<path class="st0" d="M1524.1,32.9c-2.5,4.4-7.6,6.6-12.5,5.5c-0.8-0.2-1.7-0.5-2.5-0.8c-0.2-0.1-0.5-0.2-0.7-0.4
				c0.8-1.4,1.9-2.6,3.2-3.5c3.3-2.4,7.8-3,11.8-1.2C1523.7,32.6,1523.9,32.7,1524.1,32.9z"/>
		</g>
	</g>
</g>
</svg>
