<?xml version="1.0" encoding="utf-8"?>
<!-- Generator: Adobe Illustrator 28.1.0, SVG Export Plug-In . SVG Version: 6.00 Build 0)  -->
<svg version="1.1" id="Layer_1" xmlns="http://www.w3.org/2000/svg" xmlns:xlink="http://www.w3.org/1999/xlink" x="0px" y="0px"
	 viewBox="0 0 300 105" style="enable-background:new 0 0 300 105;" xml:space="preserve">
<style type="text/css">
	.st0{fill:#FFFFFF;}
	.st1{font-family:'Kanit-Italic';}
	.st2{font-size:31.9135px;}
</style>
<path class="st0" d="M-2601.1,26.6h-27c-5.3,0-10.5,2.2-14.2,5.9c-3.7,3.7-5.8,8.8-5.8,14.1v12c0,5.3,2.1,10.3,5.8,14.1
	c3.8,3.8,8.9,5.9,14.2,5.9h27c5.3,0,10.4-2.2,14.2-5.9c3.7-3.7,5.8-8.7,5.8-14.1v-12c0-5.3-2.1-10.4-5.8-14.1
	C-2590.7,28.7-2595.9,26.6-2601.1,26.6z M-2593.4,35v35.1h-42.5V35H-2593.4z"/>
<path class="st0" d="M-2668.2,70.1h-10.9V55.7l-9.5-11.2l-10.5-12.7c-2.7-3.4-6.8-5.3-11.2-5.3c-7.9,0-14.3,6.5-14.3,14.4v37.5h12.4
	V35h10.9v14.2l20,24c2.7,3.4,6.8,5.3,11.1,5.3c7.9,0,14.3-6.5,14.3-14.4V26.6h-12.3V70.1z"/>
<path class="st0" d="M-2501.6,26.7l-20.4,40.5c-3.5,6.9-10.5,11.2-18.2,11.3h0c-7.7,0-14.7-4.3-18.2-11.3l-20.4-40.5h14l15.4,30.6
	l0.1,12.7h18.3l0.1-12.7l15.4-30.6H-2501.6z"/>
<path class="st0" d="M-2437,78.5h-14l-0.1-0.3l-15.2-30.4l-0.1-12.7h-18.3l-0.1,12.7l-15.2,30.4l-0.1,0.3h-14l20.4-40.5
	c3.5-6.9,10.5-11.2,18.2-11.3h0c7.7,0,14.7,4.3,18.2,11.3L-2437,78.5z"/>
<g>
	<g>
		<g>
			<path class="st0" d="M-2388.2,72.3c3.4,3.3,8.1,5.2,13.6,5.6c0.9,0.1,1.9,0.1,2.9,0.1c5.8-0.1,10.9-1.2,15.1-3.2l0.5-0.2l-0.4-20
				l-11.7,1.5l0.3,11.4c-0.9,0.2-1.8,0.3-2.9,0.4c-3.2,0.1-5.9-0.9-7.8-2.8c-2-2-3.1-5-3.2-8.9c-0.2-7.6,3.6-12,10.5-12.2
				c4.1-0.1,7.2,0.8,11.3,3.3l1.1,0.7l1.1-11.2l-0.5-0.2c-3.3-1.5-7.3-2.9-14.2-2.8c-13.5,0.3-22.1,9.2-21.8,22.6
				C-2394.4,63-2392.2,68.5-2388.2,72.3z"/>
			<path class="st0" d="M-2262.3,33.8c-14.1-1.5-24.2,6.2-25.6,19.6c-1.5,13.5,6.5,23.1,20.3,24.6c1.6,0.2,3,0.2,4.3,0.2
				c4.4,0,7.4-0.8,10.1-1.8l0.5-0.2l1.2-11.4l-1.4,0.7c-3.7,1.9-8.6,2.7-13.2,2.2c-3.2-0.3-5.8-1.7-7.4-3.8c-1.8-2.3-2.5-5.4-2-9.3
				c0.4-3.9,1.8-6.8,4-8.7c2.2-1.7,5-2.4,8.5-2.1c4,0.4,7.1,1.8,10.7,4.8l1,0.8l3.2-10.9l-0.5-0.3
				C-2251.7,36.4-2255.5,34.5-2262.3,33.8z"/>
			<polygon class="st0" points="-2217,35.4 -2216.3,49.8 -2231.2,50.5 -2231.9,33.6 -2244.1,35.4 -2242.2,78.4 -2230.1,77.4 
				-2230.8,60.6 -2215.9,60 -2215.1,78.3 -2202.9,78.3 -2203.7,33.5 			"/>
			<polygon class="st0" points="-2183.6,33.7 -2200.3,54.4 -2185.6,78.3 -2170.1,77.4 -2186.6,54.7 -2169.5,35.2 			"/>
			<polygon class="st0" points="-2138.3,35.4 -2138.1,59.2 -2154.3,34.1 -2165.9,33.7 -2167.5,76.8 -2155.2,77.2 -2155.4,52.3 
				-2139.2,77.8 -2127.6,78.3 -2126,34.5 			"/>
			<g>
				<polygon class="st0" points="-2338,26.2 -2345,22.5 -2349.3,35.8 				"/>
				<polygon class="st0" points="-2352.1,27.5 -2352.1,35.8 -2358.1,28.4 				"/>
			</g>
			<path class="st0" d="M-2298.6,58v0.2c0,8.2-4,15.5-10.3,20.1c-2.1-8.2-5.1-19.5-5.1-19.6c0,0,3.7-1.6,5.2-4.2
				c1.5-2.5,1.5-6.7-1.9-8.6c-2.3,4.3-5.6,5.6-5.6,5.6c4.6-6.1,1.7-13.7-5.9-13c1.7,2.8,1,6.4-0.6,9.1c0.8-8.2-9.3-12.3-14.4-5.1
				c3.3,1,7.2,3.2,7.7,6.8c-2.6,2-3.2,5.2-3.2,5.2c-6.3-0.7-9.5,2.9-9.5,2.9s4.5,5.5,12.9,2.3c-4.5,6.4-11.8,3.5-12.6,2.9
				c0,0,0.5,4.3,4.5,5.9l-4.3,9.4c-6.1-4.6-10-11.8-10-19.8V58c0-14,11.9-25.4,26.6-25.4C-2310.5,32.6-2298.6,44-2298.6,58z"/>
		</g>
	</g>
</g>
<g>
	<g>
		<g>
			<g>
				<g>
					<g>
						<g>
							<g>
								<g>
									<g>
										<g>
											<g>
												<path class="st0" d="M-1659.4,29.6c-1.9-1.8-4.7-2.8-8.4-2.8h-13.7v34.1h6.3V48h7.4c3.7,0,6.5-0.9,8.4-2.8
													s2.9-4.4,2.9-7.8S-1657.5,31.4-1659.4,29.6z M-1664.1,41.1c-0.9,0.9-2.2,1.4-3.9,1.4h-7.2V32.2h7.2c1.7,0,3,0.4,3.9,1.4
													c0.9,0.9,1.3,2.2,1.3,3.8C-1662.8,39-1663.2,40.2-1664.1,41.1z"/>
												<path class="st0" d="M-1618.9,26.8v34.1h6.3V26.8H-1618.9z"/>
												<path class="st0" d="M-1574.4,26.8l-11.3,28l-11-28h-7.6v34.1h6.3V36.9l9.1,24.1h6.3l9.5-24.1v24.1h6.3V26.8H-1574.4z"
													/>
												<path class="st0" d="M-1538,32.2v-5.4h-21.3v34.1h21.3v-5.4h-15v-9.2h13.7v-5h-13.7v-9.1H-1538z"/>
												<path class="st0" d="M-1480,47.3c-0.7-1.2-1.5-2.1-2.6-2.9c-1.1-0.8-2.3-1.4-3.6-1.9c-1.3-0.5-2.6-0.9-3.8-1.3
													c-0.9-0.3-1.9-0.6-3-1c-1.1-0.4-2-0.9-2.7-1.6c-0.8-0.7-1.1-1.5-1.1-2.5c0-0.9,0.2-1.6,0.7-2.2c0.4-0.6,1.1-1.1,1.9-1.4
													c0.8-0.3,1.7-0.5,2.7-0.5c1.2,0,2.3,0.2,3.1,0.7c0.9,0.4,1.5,1.1,2,1.8c0.5,0.8,0.7,1.7,0.7,2.8h6.2
													c0-2.2-0.5-4.1-1.6-5.7c-1-1.6-2.5-2.9-4.4-3.7c-1.9-0.9-4.1-1.3-6.6-1.3c-2.1,0-3.9,0.4-5.6,1.1c-1.7,0.8-3,1.8-4,3.3
													c-1,1.4-1.5,3.2-1.5,5.2c0,1.7,0.3,3.1,1,4.2c0.7,1.2,1.6,2.1,2.7,2.9s2.3,1.4,3.6,1.9c1.3,0.5,2.6,0.9,3.9,1.3
													c0.9,0.3,1.9,0.6,2.9,0.9c1,0.4,1.9,0.9,2.6,1.5c0.7,0.6,1.1,1.5,1.1,2.5c0,0.9-0.3,1.7-0.8,2.4
													c-0.5,0.6-1.2,1.1-2.1,1.4s-1.9,0.5-3,0.5c-1.4,0-2.6-0.2-3.6-0.7s-1.8-1.1-2.3-1.9s-0.8-1.9-0.8-3.2h-6.2
													c0,2.4,0.6,4.5,1.7,6.2c1.1,1.7,2.6,2.9,4.6,3.8c2,0.8,4.2,1.3,6.8,1.3c1.5,0,2.9-0.2,4.3-0.6c1.4-0.4,2.7-1,3.8-1.8
													c1.1-0.8,2-1.8,2.7-3c0.7-1.2,1-2.7,1-4.3C-1479,49.9-1479.3,48.5-1480,47.3z"/>
											</g>
										</g>
										<path class="st0" d="M-1632.6,47.4c1.6-0.4,2.9-1.2,3.9-2.2c1.9-1.9,2.9-4.5,2.9-7.8c0-3.4-1-6-2.9-7.8
											c-1.9-1.9-4.7-2.8-8.4-2.8h-13.7v34.1h6.3V32.2h7.2c1.7,0,3,0.4,3.9,1.4c0.9,0.9,1.3,2.2,1.3,3.8c0,1.6-0.4,2.8-1.3,3.8
											c-0.9,0.9-2.2,1.4-3.9,1.4h-5l3.5,5.4l8.5,12.9h7.1L-1632.6,47.4z"/>
										<path class="st0" d="M-1515.2,47.4c1.6-0.4,2.9-1.2,3.9-2.2c1.9-1.9,2.9-4.5,2.9-7.8c0-3.4-1-6-2.9-7.8
											c-1.9-1.9-4.7-2.8-8.4-2.8h-13.7v34.1h6.3V32.2h7.2c1.7,0,3,0.4,3.9,1.4c0.9,0.9,1.3,2.2,1.3,3.8c0,1.6-0.4,2.8-1.3,3.8
											c-0.9,0.9-2.2,1.4-3.9,1.4h-5l3.5,5.4l8.5,12.9h7.1L-1515.2,47.4z"/>
									</g>
								</g>
							</g>
						</g>
					</g>
				</g>
			</g>
		</g>
		<g>
			<path class="st0" d="M-1681.5,78.6v-9.4h3.6c0.9,0,1.6,0.2,2.1,0.7c0.5,0.5,0.8,1.2,0.8,2c0,0.9-0.3,1.5-0.8,2s-1.2,0.7-2.1,0.7
				h-2.3v3.8H-1681.5z M-1680.2,73.7h2.3c0.6,0,1-0.2,1.3-0.5c0.3-0.3,0.4-0.7,0.4-1.3c0-0.5-0.1-0.9-0.4-1.2
				c-0.3-0.3-0.7-0.5-1.3-0.5h-2.3V73.7z M-1674.5,78.6h-1.3l-2.3-4.5h1.1L-1674.5,78.6z"/>
			<path class="st0" d="M-1667.2,78.6v-9.4h1.2v9.4H-1667.2z"/>
			<path class="st0" d="M-1657,75.8c0,0.4,0.1,0.7,0.3,1c0.2,0.3,0.5,0.5,0.8,0.6c0.3,0.1,0.7,0.2,1.1,0.2c0.4,0,0.7-0.1,1-0.2
				c0.3-0.1,0.5-0.3,0.7-0.5c0.2-0.2,0.3-0.5,0.3-0.8c0-0.4-0.1-0.6-0.3-0.8c-0.2-0.2-0.5-0.4-0.8-0.5s-0.7-0.2-1-0.3
				c-0.4-0.1-0.7-0.2-1.1-0.4s-0.7-0.3-1-0.5c-0.3-0.2-0.5-0.5-0.7-0.8c-0.2-0.3-0.3-0.7-0.3-1.1c0-0.5,0.1-1,0.4-1.4
				c0.3-0.4,0.6-0.7,1.1-0.9c0.5-0.2,1-0.3,1.5-0.3c0.6,0,1.2,0.1,1.7,0.4c0.5,0.2,0.9,0.6,1.2,1c0.3,0.4,0.4,0.9,0.4,1.5h-1.2
				c0-0.4-0.1-0.7-0.3-0.9c-0.2-0.3-0.4-0.5-0.7-0.6c-0.3-0.1-0.6-0.2-1-0.2c-0.4,0-0.7,0.1-0.9,0.2c-0.3,0.1-0.5,0.3-0.7,0.5
				c-0.2,0.2-0.2,0.5-0.2,0.8c0,0.3,0.1,0.6,0.3,0.8c0.2,0.2,0.5,0.4,0.9,0.5c0.3,0.1,0.7,0.2,1,0.4c0.4,0.1,0.7,0.2,1.1,0.4
				c0.4,0.1,0.7,0.3,1,0.5c0.3,0.2,0.5,0.5,0.7,0.8c0.2,0.3,0.3,0.7,0.3,1.1s-0.1,0.8-0.3,1.1c-0.2,0.3-0.4,0.6-0.7,0.8
				c-0.3,0.2-0.6,0.4-1,0.5c-0.4,0.1-0.8,0.2-1.2,0.2c-0.7,0-1.2-0.1-1.8-0.3c-0.5-0.2-0.9-0.5-1.3-1c-0.3-0.4-0.5-1-0.5-1.6H-1657z
				"/>
			<path class="st0" d="M-1636.9,69.2l-4,4.7l4,4.7h-1.5l-3.5-4.3h-0.8v4.3h-1.2v-9.4h1.2v4.2h0.8l3.6-4.2H-1636.9z"/>
			<path class="st0" d="M-1621.7,78.6v-9.4h1.6l3.3,8.3l3.6-8.3h1.6v9.4h-1.2V71l-3.2,7.6h-1.4l-3-7.6v7.6H-1621.7z"/>
			<path class="st0" d="M-1603.5,78.6h-1.3l3.5-9.4h1.4l3.5,9.4h-1.3l-0.9-2.5h-4L-1603.5,78.6z M-1598.9,75.1l-1.7-4.6l-1.7,4.6
				H-1598.9z"/>
			<path class="st0" d="M-1582.4,69.2v9.4h-1.3l-4.6-7.5v7.5h-1.2v-9.4h1.3l4.6,7.5v-7.5H-1582.4z"/>
			<path class="st0" d="M-1574.2,78.6h-1.3l3.5-9.4h1.4l3.5,9.4h-1.3l-0.9-2.5h-4L-1574.2,78.6z M-1569.6,75.1l-1.7-4.6l-1.7,4.6
				H-1569.6z"/>
			<path class="st0" d="M-1552.7,73.7v3.5c-0.3,0.3-0.6,0.6-0.9,0.8c-0.4,0.2-0.8,0.4-1.3,0.5s-1,0.2-1.5,0.2
				c-0.9,0-1.7-0.2-2.3-0.6c-0.7-0.4-1.2-0.9-1.5-1.6c-0.4-0.7-0.5-1.6-0.5-2.6c0-1,0.2-1.8,0.5-2.5c0.3-0.7,0.8-1.3,1.5-1.7
				c0.6-0.4,1.4-0.6,2.2-0.6c0.8,0,1.6,0.2,2.2,0.7c0.6,0.4,1.1,1.1,1.4,1.8l-1,0.4c-0.2-0.6-0.5-1-1-1.3c-0.4-0.3-1-0.5-1.6-0.5
				c-0.9,0-1.6,0.3-2.2,1c-0.5,0.7-0.8,1.6-0.8,2.8c0,1.2,0.3,2.1,0.8,2.8c0.5,0.6,1.3,0.9,2.4,0.9c0.3,0,0.6,0,0.9-0.1
				c0.3-0.1,0.6-0.1,0.9-0.3c0.3-0.1,0.5-0.2,0.6-0.3v-2.2h-2.8v-1H-1552.7z"/>
			<path class="st0" d="M-1539.5,78.6h-5.6v-9.4h5.6v1.1h-4.4v3.1h4v1h-4v3.1h4.4V78.6z"/>
			<path class="st0" d="M-1532.3,78.6v-9.4h1.6l3.3,8.3l3.6-8.3h1.6v9.4h-1.2V71l-3.2,7.6h-1.4l-3-7.6v7.6H-1532.3z"/>
			<path class="st0" d="M-1508.5,78.6h-5.6v-9.4h5.6v1.1h-4.4v3.1h4v1h-4v3.1h4.4V78.6z"/>
			<path class="st0" d="M-1494.2,69.2v9.4h-1.3l-4.6-7.5v7.5h-1.2v-9.4h1.3l4.6,7.5v-7.5H-1494.2z"/>
			<path class="st0" d="M-1483.5,78.6v-8.4h-3.3v-1.1h7.8v1.1h-3.3v8.4H-1483.5z"/>
		</g>
	</g>
	<g>
		<path class="st0" d="M-1697.1,52v12.6l-19,2.8c-1.9,0.3-3.5,1.2-4.6,2.5c-1.1,1.3-1.8,3.1-1.8,4.9l-25.8,3.7V66.5l22.4-3.2
			c2-0.3,3.5-2,3.5-4v-3.5L-1697.1,52z"/>
		<path class="st0" d="M-1697.1,26.8v12.6l-19.4,2.8c-1.9,0.3-3.5,1.2-4.6,2.5c-1.2,1.3-1.8,3.1-1.8,4.9l-25.4,3.7V41.3l22-3.2
			c2-0.3,3.5-2,3.5-4v-3.5L-1697.1,26.8z"/>
	</g>
</g>
<g>
	<path class="st0" d="M-1338.2,42.8c0,3.6-2.3,6.3-8.2,6.3h-10.7V27.4h9.5c6.3,0,8.3,2.5,8.3,6c0,2.2-1.6,3.8-2,4.2
		C-1339.4,38.6-1338.2,40.5-1338.2,42.8z M-1344.5,34c0-1.5-1-2.2-3-2.2h-4.5v4.5h4.5C-1345.2,36.4-1344.5,35.7-1344.5,34z
		 M-1347.1,40.4h-4.9v4.2h4.9c2.1,0,3.2-0.7,3.2-2.1C-1343.9,40.9-1345,40.4-1347.1,40.4z"/>
	<path class="st0" d="M-1316.3,35.6c0,3.1-1.5,5.8-3.9,7l4.5,6.6h-6.5l-3.3-5.4h-3.8v5.4h-5.3V27.4h10.5
		C-1319.6,27.4-1316.3,30.8-1316.3,35.6z M-1329.3,32.3v6.6h4.5c1.8,0,3.2-1.5,3.2-3.3c0-1.8-1.4-3.3-3.2-3.3H-1329.3z"/>
	<path class="st0" d="M-1295.7,45.8h-10.5l-1.4,3.4h-5.6l9.3-21.8h5.9l9.4,21.8h-5.6L-1295.7,45.8z M-1297.5,41.5l-3.4-8.1l-3.5,8.1
		H-1297.5z"/>
	<path class="st0" d="M-1263.8,49.2h-5.3l-11-13.3v13.3h-5.3V27.4h5.3l11,13.3V27.4h5.3V49.2z"/>
	<path class="st0" d="M-1238.1,38.2c0,6.3-4.7,10.9-11.5,10.9h-9.6V27.4l9.6,0C-1242.4,27.4-1238.1,32-1238.1,38.2z M-1254,44.3h4.4
		c3.7,0,6.2-2.4,6.2-6.1c0-3.9-2.5-6-6.2-6h-4.4V44.3z"/>
	<path class="st0" d="M-1217.5,34.3h-5.2c0-1.1-1.3-2.6-3.5-2.6c-1.6,0-3.5,0.7-3.5,2c0,1.1,1.4,1.5,4.5,2.3
		c3.4,0.9,8.3,2.1,8.3,6.9c0,4.2-3.7,6.8-8.7,6.8c-6.8,0-9.7-4.6-9.7-8h5.2c0,0,0.4,3.5,4.7,3.5c2.3,0,3.2-1,3.2-1.9
		c0-1.4-1.8-1.9-3.8-2.3c-3.3-0.8-9-2-9-6.8c0-4,3.9-6.9,8.9-6.9C-1220.5,27-1217.5,30.9-1217.5,34.3z"/>
	<path class="st0" d="M-1338.2,72.1c0,3.6-2.3,6.3-8.2,6.3h-10.7V56.7h9.5c6.3,0,8.3,2.5,8.3,6c0,2.2-1.6,3.8-2,4.2
		C-1339.4,67.9-1338.2,69.8-1338.2,72.1z M-1344.5,63.3c0-1.5-1-2.2-3-2.2h-4.5v4.5h4.5C-1345.2,65.7-1344.5,65-1344.5,63.3z
		 M-1347.1,69.7h-4.9v4.2h4.9c2.1,0,3.2-0.7,3.2-2.1C-1343.9,70.2-1345,69.7-1347.1,69.7z"/>
	<path class="st0" d="M-1320.2,75.1h-10.5l-1.4,3.4h-5.6l9.3-21.8h5.9l9.4,21.8h-5.6L-1320.2,75.1z M-1322.1,70.8l-3.4-8.1l-3.5,8.1
		H-1322.1z"/>
	<path class="st0" d="M-1288.4,78.5h-5.3l-11-13.3v13.3h-5.3V56.7h5.3l11,13.3V56.7h5.3V78.5z"/>
	<path class="st0" d="M-1271.1,65.5l9.1,13h-6.8l-6-9l-3.7,4.1v4.9h-5.3V56.7h5.3v9.6l8.3-9.6h6.6L-1271.1,65.5z"/>
</g>
<circle class="st0" cx="-1254.4" cy="74.1" r="4.9"/>
<g>
	<path class="st0" d="M-854.3,27.9h-0.5c-3.1,0-5.6,2.5-5.6,5.6v23.2c0,2.7-1.1,4.8-3.3,6.5c-2.2,1.7-4.7,2.5-7.7,2.5
		c-3,0-5.6-0.9-7.8-2.7c-2.2-1.8-3.4-4-3.4-6.7V33.4c0-3.1-2.5-5.6-5.6-5.6c-3.1,0-5.6,2.5-5.6,5.6v4.3c2.1,3.4,3.1,7.2,3.1,11.5
		v18.2c0.9,1.4,2,2.7,3.3,4c4.3,4,9.5,6.1,15.7,6.1c5.4,0,10.5-2,15.2-6.1c5-4.3,7.6-9.4,7.6-15.2V33.4
		C-848.7,30.4-851.2,27.9-854.3,27.9z"/>
	<path class="st0" d="M-991.4,75.6c-0.1,0.1-0.2,0.2-0.3,0.3c-1,1-2.3,1.6-3.8,1.6h-18.7c-1.5,0-2.8-0.6-3.8-1.6
		c-1-1-1.6-2.3-1.6-3.8V32.8c0-3,2.4-5.4,5.4-5.4c3,0,5.4,2.4,5.4,5.4v33.8h6.1c2.6,3.9,6.1,6.8,10.7,8.7
		C-991.8,75.4-991.6,75.5-991.4,75.6z"/>
	<path class="st0" d="M-893.6,56.5V37.8c-0.9-1.5-2-2.9-3.4-4.3c-4.3-4.4-9.5-6.5-15.6-6.5c-6.2,0-11.6,2.2-16,6.5
		c-4.4,4.3-6.6,9.6-6.6,15.7v17.6l1.5,2.6c1.1,1.9,0.8,4.1-0.4,5.6c1,1.4,2.7,2.4,4.6,2.4c3.2,0,5.7-2.6,5.7-5.7v-23
		c0-2.8,1-5.2,3.1-7.2c2.1-2,4.6-3,7.5-3c3,0,5.6,1,7.8,3c2.2,2,3.3,4.5,3.3,7.3v22.8c0,3.2,2.6,5.7,5.7,5.7h0.1
		c3.2,0,5.7-2.6,5.7-5.7v-4.3C-892.5,64.2-893.6,60.6-893.6,56.5z"/>
	<path class="st0" d="M-890.4,49.3v18.2c-2.1-3.2-3.1-6.8-3.1-10.9V37.8C-891.5,41.2-890.4,45-890.4,49.3z"/>
	<path class="st0" d="M-938.4,31.1h-0.5c-1.9,0-3.6,1-4.5,2.6l-10.7,18.3h-0.9V32.8c0-1.4-0.6-2.7-1.5-3.7c-0.9-0.9-2.2-1.5-3.7-1.5
		c-2.9,0-5.2,2.3-5.2,5.2v0.7c3,2.8,4.9,6.4,6.6,10.5c0.5,1.3,0.8,2.5,1.1,3.8l-7.7,3v21.5c0,1.4,0.6,2.7,1.5,3.7
		c0.9,0.9,2.2,1.5,3.7,1.5c2.9,0,5.2-2.3,5.2-5.2V56.1h0.8l11.1,18.6c0.9,1.6,2.6,2.5,4.5,2.5h0.3c1.8,0,3.3-0.9,4.2-2.1
		c-0.7-0.9-1.1-2.1-1.1-3.4v-4.9l-7.3-13.1l8.6-14.8C-931.8,35.4-934.3,31.1-938.4,31.1z"/>
	<path class="st0" d="M-934.1,75.1c-0.7-0.9-1.1-2.1-1.1-3.4v-4.9l1.5,2.6C-932.6,71.4-932.9,73.5-934.1,75.1z"/>
	<path class="st0" d="M-965.4,33.5c-1.6-1.5-3.5-2.8-5.9-3.8c-6.5-2.9-13-3.2-19.3-0.9l-0.1,0c-0.2,0.1-0.3,0.1-0.5,0.2
		c-6.5,2.5-11.1,6.9-13.8,13.3c-2.8,6.4-2.9,12.8-0.4,19.3c0,0.1,0.1,0.2,0.1,0.3c0.5,1.3,1.1,2.4,1.7,3.6c0.2,0.4,0.5,0.8,0.7,1.2
		h7.2c3,0,5.4,2.4,5.4,5.4c0,1.3-0.5,2.6-1.3,3.5c3,1.2,6,1.8,9.1,1.9h0.1c2.2,0,4.4-0.3,6.6-0.8c0.2-0.1,0.4-0.1,0.7-0.2
		c0.6-0.2,1.3-0.4,1.9-0.6c0.2-0.1,0.3-0.1,0.5-0.2l-3.8-9.8c-0.1,0-0.2,0.1-0.3,0.1c-3.4,1.3-6.7,1.4-9.9,0.4
		c-0.5-0.1-0.9-0.3-1.4-0.5c-2.1-0.9-3.9-2.3-5.4-4.2l28-10.8V33.5z M-988.7,50.5L-988.7,50.5c-0.6-1.6-2.3-2.3-3.8-1.8
		c-1.5,0.6-2.3,2.3-1.7,3.8c0,0,0,0.1,0,0.1l-2.8,1.1l0-0.1c-1.2-3.1,0.3-6.5,3.4-7.7c3.1-1.2,6.5,0.3,7.7,3.4c0,0,0,0.1,0,0.1
		L-988.7,50.5z M-973.4,44.5C-973.4,44.5-973.4,44.5-973.4,44.5c-0.6-1.6-2.3-2.3-3.8-1.8c-1.5,0.6-2.3,2.3-1.7,3.8l0,0.1l-2.8,1.1
		c0,0,0-0.1,0-0.1c-1.2-3.1,0.3-6.5,3.4-7.7c3.1-1.2,6.5,0.3,7.7,3.4l0,0.1L-973.4,44.5z"/>
	<path class="st0" d="M-990.1,72.1c0,1.3-0.5,2.6-1.3,3.5c-0.2-0.1-0.4-0.2-0.6-0.2c-4.6-1.9-8.2-4.8-10.7-8.7h7.2
		C-992.6,66.7-990.1,69.1-990.1,72.1z"/>
	<path class="st0" d="M-957.7,47.8l-7.7,3V33.5c3,2.8,4.9,6.4,6.6,10.5C-958.3,45.3-958,46.6-957.7,47.8z"/>
</g>
<g>
	<g>
		<path class="st0" d="M-420.7,66l-0.8,0.5c-1.9,1.2-4.8,1.8-6.7,1.8c-3.9,0-6.5-2.1-7.2-5.5c-0.1-0.5-0.2-0.9-0.2-1.4
			c0-0.6,0-1.3,0.1-2.1l1.8-16h-2.3c-0.5-1.9-1.3-3.6-2.3-5.1h5.2l1-7.4c0-0.1,0.1-0.1,0.1-0.1h4.6c0,0,0.1,0,0.1,0.1l-0.8,7.4h9.2
			c0.1,0,0.1,0,0.1,0.1l-0.5,4.9c0,0.1-0.1,0.1-0.1,0.1h-9.2l-1.7,15.5c-0.3,2.7,1,4.4,3.3,4.4c1.5,0,3.4-0.5,4.4-1.1l1.4-0.8
			L-420.7,66z"/>
		<path class="st0" d="M-621.7,57.3c-0.7,6.6-6.4,10.9-14.2,10.9c-5.1,0-10-2.1-13-5.6l-0.6-0.7l3-4.5l0.9,1
			c2.7,2.9,6.4,4.6,10.4,4.6c4.6,0,7.8-2.2,8.2-5.5c0.4-3.2-1.3-4.5-7.7-6.1c-6.2-1.5-11.9-3.9-11.1-11.2
			c0.7-6.4,6.3-10.7,13.9-10.7c4.2,0,8,1.4,11.1,4.1l0.8,0.7l-3.2,4c-0.1,0.1-0.3,0.2-0.4,0.1l-0.3-0.3c-2.4-2.1-5.5-3.4-8.8-3.4
			c-4.5,0-7.5,2.1-7.9,5.6c-0.3,2.7,0.8,4.4,7.7,6.1C-625.2,48.2-621,50.6-621.7,57.3z"/>
		<path class="st0" d="M-601.7,37.6c-3.7,0-7.2,1.5-10,4l0.4-3.4c0-0.1,0-0.1-0.1-0.1h-4.9c-0.1,0-0.1,0-0.1,0.1l-4.2,38.1
			c0,0,0,0.1,0.1,0.1h4.9c0.1,0,0.1,0,0.1-0.1l1.3-12.1c2.1,2.5,5.3,4,9.1,4c7.8,0,14.2-6.4,15.1-15.3
			C-589.1,44.2-594.1,37.6-601.7,37.6z M-595,53c-0.7,6-4.8,10.1-9.9,10.1c-5.4,0-8.7-4.2-8-10.1c0.7-6,4.9-10.2,10.2-10.2
			C-597.5,42.8-594.4,47-595,53z"/>
		<path class="st0" d="M-564.9,40c-2-1.6-4.4-2.3-7-2.3c-8.2,0-14.7,6.3-15.6,15.3c-1,8.9,4.3,15.3,12.6,15.3
			c4.2,0,8.1-1.7,11.2-4.9l0.9-0.9L-566,59l-0.9,0.9c-2.1,2.1-4.5,3.1-7.5,3.1c-4.8,0-8-3.1-8.3-7.8c0-0.1,0.1-0.1,0.1-0.1h21.1
			c0.1,0,0.1,0,0.1-0.1l0.3-1.5C-560.1,48.4-561.3,43-564.9,40z M-565.8,50.2h-16c-0.1,0-0.1-0.1-0.1-0.1c1.4-4.5,4.9-7.3,9.4-7.3
			c4.1,0,6.6,2.7,6.9,7.3C-565.7,50.2-565.8,50.2-565.8,50.2z"/>
		<path class="st0" d="M-545,37.6c-3.8,0-7.7,1.4-10.9,3.9l-0.9,0.7l2.2,4.3l1-0.8c2.2-1.8,5-2.8,7.7-2.8c4.5,0,6.5,2.2,6,6.7l0,0
			c-2.4-0.3-5-0.5-7.6-0.5c-6.9,0-11.4,3.6-12,9.7c-0.6,5.8,2.8,9.5,8.8,9.5c3.8,0,7-1.8,9.2-3.9l-0.4,3.3c0,0.1,0,0.1,0.1,0.1h4.8
			c0,0,0.1,0,0.1-0.1l2-18.2C-533.9,41.8-537.5,37.6-545,37.6z M-540.4,55.1c0,0.2,0,0.3-0.1,0.5c-0.9,3.7-4.5,7.5-8.8,7.5
			c-2.6,0-5.7-0.8-5.3-4.5c0.1-1.1,0.5-4.6,7.1-4.6c2.5,0,4.7,0.2,7.1,0.5L-540.4,55.1z"/>
		<path class="st0" d="M-506.2,67.8h-6.1c0,0,0,0-0.1,0l-9.4-13.3l-5.6,5.3l-0.9,7.9c0,0.1,0,0.1-0.1,0.1h-4.9c0,0-0.1,0-0.1-0.1
			l4.3-39.6c0-0.1,0.1-0.1,0.1-0.1h4.9c0.1,0,0.1,0,0.1,0.1l-2.7,24.7l15.4-14.6h6.9L-517.9,51l11.8,16.7
			C-506,67.7-506.1,67.8-506.2,67.8z"/>
		<path class="st0" d="M-468.7,30l-4.1,37.7c0,0.1-0.1,0.1-0.1,0.1h-3.9c0,0-0.1,0-0.1,0l-17.5-27.7c0-0.1-0.2,0-0.2,0.1l-3,27.6
			c0,0.1-0.1,0.1-0.1,0.1h-5c-0.1,0-0.1,0-0.1-0.1l4.1-37.7c0-0.1,0.1-0.1,0.1-0.1h4c0,0,0.1,0,0.1,0l17.4,27.5c0,0.1,0.2,0,0.2-0.1
			l3-27.4c0-0.1,0.1-0.1,0.1-0.1h4.9C-468.7,29.9-468.7,30-468.7,30z"/>
		<path class="st0" d="M-445.6,40c-2-1.6-4.4-2.3-7-2.3c-8.2,0-14.7,6.3-15.6,15.3c-1,8.9,4.3,15.3,12.6,15.3
			c4.2,0,8.1-1.7,11.2-4.9l0.9-0.9l-3.1-3.4l-0.9,0.9c-2.1,2.1-4.5,3.1-7.5,3.1c-4.8,0-8-3.1-8.3-7.8c0-0.1,0-0.1,0.1-0.1h21.1
			c0,0,0.1,0,0.1-0.1l0.3-1.5C-440.7,48.4-441.9,43-445.6,40z M-446.4,50.2h-16c-0.1,0-0.1-0.1-0.1-0.1c1.4-4.5,4.9-7.3,9.4-7.3
			c4.1,0,6.6,2.7,6.8,7.3C-446.3,50.2-446.4,50.2-446.4,50.2z"/>
	</g>
	<g>
		<path class="st0" d="M-654.9,41.7c0,0,0-0.1,0-0.1c0-0.1,0-0.2,0-0.3c-0.4-3.4-1.9-6.5-4.1-8.8c-2.5-2.7-5.9-4.4-9.8-4.5
			c-0.1,0-0.1,0-0.1,0h-18c-4,0-7.5,1.7-10.1,4.5c-2.6,2.8-4.2,6.6-4.2,10.8v31.9c0,0.6,0.2,1.2,0.6,1.6c0.4,0.4,0.9,0.6,1.5,0.6
			h30.2c0.7,0,1.4-0.1,2.1-0.2c0.2,0,0.3-0.1,0.5-0.1c5.9-1.3,10.6-6.5,11.3-13c0,0,0-0.1,0-0.1c0-0.5,0.1-1,0.1-1.5V42.9
			C-654.9,42.5-654.9,42.1-654.9,41.7z M-692.2,71.5c-2,0-3.6-1.7-3.6-3.8c0-2.1,1.6-3.8,3.6-3.8s3.6,1.7,3.6,3.8
			C-688.7,69.8-690.3,71.5-692.2,71.5z M-682.7,56.5c0,1.1-0.9,2-2,2h-0.3c-1.1,0-2-0.9-2-2v-7.7c0-1.1,0.9-2,2-2h0.3
			c1.1,0,2,0.9,2,2V56.5z M-675.9,60.1c0,1.1-0.9,2-2,2h-0.3c-1.1,0-2-0.9-2-2V45.2c0-1.1,0.9-2,2-2h0.3c1.1,0,2,0.9,2,2V60.1z
			 M-669.2,56.5c0,1.1-0.9,2-2,2h-0.3c-1.1,0-2-0.9-2-2v-7.7c0-1.1,0.9-2,2-2h0.3c1.1,0,2,0.9,2,2V56.5z"/>
	</g>
</g>
<g>
	<path class="st0" d="M-242,28.9v7.5h4.6v-7.5H-242z M-254.6,36.3h4.6v-7.5h-4.6V36.3z"/>
	<path class="st0" d="M-211.9,31.9c-2.4-2.5-5.3-3.7-8.7-3.7c-2.2,0-4.3,0.6-6.3,1.7c-1.9,1.1-3.5,2.6-4.6,4.6
		c-0.7,1.3-1.2,2.7-1.5,4.1h-21.7V51h4.6v-7.9h8V51h4.6V43h4.5c0.4,2.5,1.5,4.7,3.4,6.6c2.4,2.5,5.4,3.7,9,3.7
		c3.4,0,6.3-1.2,8.8-3.6c2.4-2.4,3.6-5.4,3.6-8.9C-208.2,37.4-209.4,34.4-211.9,31.9z M-215.1,46.7c-1.5,1.6-3.4,2.3-5.5,2.3
		c-1.9,0-3.6-0.6-5.1-1.8c-1.9-1.5-2.8-3.6-2.8-6.3c0-2.4,0.8-4.3,2.3-5.9c1.5-1.5,3.4-2.3,5.6-2.3c2.2,0,4.1,0.8,5.6,2.4
		c1.5,1.6,2.3,3.5,2.3,5.8C-212.8,43.2-213.5,45.1-215.1,46.7z"/>
	<path class="st0" d="M-201.6,28.9h4.4l5.5,16.7l5.6-16.7h4.4l4,23.9h-4.4l-2.6-15.1l-5.1,15.1h-4l-5-15.1l-2.6,15.1h-4.4
		L-201.6,28.9z"/>
	<path class="st0" d="M-173.9,28.9h13.1v4.5h-8.5v5.3h8.5V43h-8.5v5.3h8.5v4.5h-13.1V28.9z"/>
	<path class="st0" d="M-254.6,58.1h3.8V65l5.4-6.9h4.5l-6.9,8.9l7.6,11h-4.5l-6.1-8.8V78h-3.8V58.1z"/>
	<path class="st0" d="M-237.5,58.1h10.9v3.7h-7.1v4.4h7.1v3.6h-7.1v4.4h7.1V78h-10.9V58.1z"/>
	<path class="st0" d="M-224.4,58.1h4.1l3.7,7.2l3.7-7.2h4l-5.8,11.3V78h-3.8v-8.6L-224.4,58.1z"/>
</g>
<g>
	<text transform="matrix(0.992 0 0.1262 0.992 95.0558 66.3268)" class="st0 st1 st2">Digital livs</text>
	<g>
		<path class="st0" d="M91.1,60.5c-0.2,0.7-0.4,1.4-0.6,2.2c-1.3,4-3.8,8.1-7.9,11c1.8-1.7,3.7-6.1,1.1-8.4
			c-3.9-3.3-7.1-0.9-7.6-0.7c1.9-1.7,3-3.9,3.4-6.1c0.4-2.3,0-4.6-1-6.5C77,49,73.7,46.8,69.7,46c-2.9-0.6-6.3-0.4-9.7,0.8
			c-8.1,2.9-10.9-2.8-6.9-6.2c2.8-2.5,7.4-5.4,14.2-5.4l0,0c4.9,0.2,5.2,1.5,9.7,3.4c3.9,1.6,8.8,1.3,12.1,5.6
			C93.6,50.2,92,56.5,91.1,60.5z"/>
		<path id="XMLID_23_" class="st0" d="M82.7,73.6c-0.3,0.2-0.6,0.4-0.9,0.6c-2.6,1.6-5.9,2.8-9.9,3.3c-8.4,0.9-15.8-0.8-18.1-11.9
			c0,0-1.5-8.6,1.3-12.7c3.2-4.7,10.6-4.3,10.8,2.6c0.3,6.9-1.3,14,6.1,11.5c1.7-0.6,3-1.4,4.1-2.4c0,0,0,0,0,0
			c0.3-0.2,3.7-2.7,7.6,0.6C86.4,67.5,84.5,71.9,82.7,73.6z"/>
		<g>
			<path class="st0" d="M79.6,33.7c-1.3,0.9-2.4,2.1-3.2,3.5c-3.1-1.7-5.1-4.6-5.8-7.8c1.7-0.6,3.6-0.5,5.3,0.3
				C77.7,30.5,79,32,79.6,33.7z"/>
			<path class="st0" d="M92.1,32.9c-2.5,4.4-7.6,6.6-12.5,5.5c-0.8-0.2-1.7-0.5-2.5-0.8c-0.2-0.1-0.5-0.2-0.7-0.4
				c0.8-1.4,1.9-2.6,3.2-3.5c3.3-2.4,7.8-3,11.8-1.2C91.7,32.6,91.9,32.7,92.1,32.9z"/>
		</g>
	</g>
</g>
</svg>
