<svg width="181" height="64" viewBox="0 0 181 64" fill="none" xmlns="http://www.w3.org/2000/svg">
<g id="Group 1000001722">
<g id="Group 1000001721">
<path id="Vector" fill-rule="evenodd" clip-rule="evenodd" d="M11.4875 23.8448L16.3982 62.5974L6.04893 63.9088L1.13818 25.1562L11.4875 23.8448Z" fill="white"/>
<path id="Vector_2" fill-rule="evenodd" clip-rule="evenodd" d="M16.6626 23.1895L38.655 20.4026C45.7997 19.4972 52.3245 24.5466 53.2285 31.6808C54.1326 38.815 49.0735 45.3323 41.9288 46.2376L30.2857 47.713L31.9227 60.6306L21.5733 61.942L16.6626 23.1895ZM28.9762 37.379L40.6192 35.9036C42.0482 35.7225 43.06 34.4191 42.8792 32.9922C42.6984 31.5654 41.3935 30.5555 39.9645 30.7366L28.3214 32.212L28.9762 37.379Z" fill="white"/>
<path id="Vector_3" fill-rule="evenodd" clip-rule="evenodd" d="M90.4016 13.8448L92.9388 33.867C93.5264 38.5041 97.7675 41.7863 102.412 41.1978C107.056 40.6093 110.344 36.373 109.757 31.7358L107.219 11.7136L117.569 10.4021L120.106 30.4243C121.417 40.7689 114.081 50.219 103.721 51.5318C93.3612 52.8446 83.9003 45.523 82.5895 35.1784L80.0522 15.1562L90.4016 13.8448Z" fill="white"/>
<path id="Vector_4" fill-rule="evenodd" clip-rule="evenodd" d="M57.764 36.3551C56.4984 26.3673 63.5811 17.243 73.5837 15.9755L76.171 15.6476L77.4805 25.9816L74.8932 26.3095C70.6063 26.8527 67.5709 30.7632 68.1134 35.0436L68.2771 36.3354C69.6331 47.0366 62.0445 56.8126 51.3274 58.1707L50.0338 58.3346L48.7243 48.0006L50.0179 47.8367C55.0192 47.2029 58.5606 42.6408 57.9277 37.6469L57.764 36.3551Z" fill="white"/>
<path id="Vector_5" d="M175.947 4.3155C176.219 6.45575 174.701 8.41089 172.557 8.68262C170.414 8.95421 168.457 7.43934 168.185 5.29909C167.914 3.15884 169.431 1.2037 171.575 0.932098C173.719 0.660371 175.676 2.17525 175.947 4.3155Z" fill="white"/>
<path id="Vector_6" d="M133.592 47.746L135.914 26.4708L141.159 38.4283C144.287 45.5602 154.798 44.2283 156.049 36.5415L158.145 23.6536L165.7 43.6771L176.34 42.3288L164.461 10.8428C161.636 3.35518 150.702 4.45018 149.416 12.3496L147.169 26.1629L141.547 13.3469C138.332 6.01773 127.47 7.68458 126.602 15.6403L122.952 49.0943L133.592 47.746Z" fill="white"/>
</g>
</g>
</svg>
