<svg xmlns="http://www.w3.org/2000/svg" width="1198" height="1360" viewBox="0 0 1198 1360" fill="none">
<g filter="url(#filter0_f_609_1817)">
<path d="M-267.241 833.448C-159.373 995.865 -173.645 327.787 566.94 626.32C816.905 727.082 680.233 0.81176 382.308 -360.919C84.3824 -722.651 233.203 258.402 -6.46848 180.361C-168.844 288.201 -375.109 671.03 -267.241 833.448Z" fill="#0D47F5" fill-opacity="0.3"/>
</g>
<defs>
<filter id="filter0_f_609_1817" x="-797.167" y="-941.295" width="1994.26" height="2300.59" filterUnits="userSpaceOnUse" color-interpolation-filters="sRGB">
<feFlood flood-opacity="0" result="BackgroundImageFix"/>
<feBlend mode="normal" in="SourceGraphic" in2="BackgroundImageFix" result="shape"/>
<feGaussianBlur stdDeviation="250" result="effect1_foregroundBlur_609_1817"/>
</filter>
</defs>
</svg>