<svg xmlns="http://www.w3.org/2000/svg" width="1474" height="1328" viewBox="0 0 1474 1328" fill="none">
  <g filter="url(#filter0_f_609_1818)">
    <path d="M510.915 74.3412C618.783 236.759 850.831 521.308 1591.42 819.841C1841.38 920.603 1978.15 -31.347 1680.22 -393.078C1382.3 -754.809 1576.09 402.382 1336.41 324.341C1174.04 432.181 403.047 -88.0763 510.915 74.3412Z" fill="#55C0F9" fill-opacity="0.29"/>
  </g>
  <defs>
    <filter id="filter0_f_609_1818" x="0.612305" y="-963.311" width="2349.05" height="2290.58" filterUnits="userSpaceOnUse" color-interpolation-filters="sRGB">
      <feFlood flood-opacity="0" result="BackgroundImageFix"/>
      <feBlend mode="normal" in="SourceGraphic" in2="BackgroundImageFix" result="shape"/>
      <feGaussianBlur stdDeviation="250" result="effect1_foregroundBlur_609_1818"/>
    </filter>
  </defs>
</svg>