<svg width="1459" height="1459" viewBox="0 0 1459 1459" fill="none" xmlns="http://www.w3.org/2000/svg">
<g opacity="0.2" filter="url(#filter0_b_0_1)">
<path d="M706.532 13.6322C720.691 5.22844 738.309 5.22844 752.468 13.6322L1043.19 186.182L1337.98 351.675C1352.33 359.735 1361.14 374.993 1360.94 391.457L1356.87 729.5L1360.94 1067.54C1361.14 1084.01 1352.33 1099.26 1337.98 1107.32L1043.19 1272.82L752.468 1445.37C738.309 1453.77 720.691 1453.77 706.532 1445.37L415.815 1272.82L121.024 1107.32C106.667 1099.26 97.8579 1084.01 98.0563 1067.54L102.13 729.5L98.0563 391.457C97.8579 374.993 106.667 359.735 121.024 351.675L415.815 186.182L706.532 13.6322Z" fill="url(#paint0_linear_0_1)" fill-opacity="0.33"/>
<path d="M1042.93 186.612L1042.94 186.618L1337.73 352.111C1351.93 360.082 1360.64 375.17 1360.44 391.451L1356.37 729.494L1356.37 729.506L1360.44 1067.55C1360.64 1083.83 1351.93 1098.92 1337.73 1106.89L1042.94 1272.38L1042.93 1272.39L752.213 1444.94C738.211 1453.25 720.789 1453.25 706.787 1444.94L416.07 1272.39L416.06 1272.38L121.269 1106.89C107.071 1098.92 98.3601 1083.83 98.5563 1067.55L102.63 729.506L102.63 729.494L98.5563 391.451C98.3601 375.17 107.071 360.082 121.269 352.111L416.06 186.618L416.07 186.612L706.787 14.0622C720.789 5.75179 738.211 5.75179 752.213 14.0622L1042.93 186.612Z" stroke="url(#paint1_linear_0_1)" stroke-opacity="0.28"/>
</g>
<g opacity="0.3" filter="url(#filter1_b_0_1)">
<path d="M706.532 176.632C720.691 168.228 738.309 168.228 752.468 176.632L973.095 307.581L1196.81 433.175C1211.17 441.235 1219.98 456.493 1219.78 472.957L1216.69 729.5L1219.78 986.043C1219.98 1002.51 1211.17 1017.76 1196.81 1025.82L973.095 1151.42L752.468 1282.37C738.309 1290.77 720.691 1290.77 706.532 1282.37L485.905 1151.42L262.186 1025.82C247.829 1017.76 239.02 1002.51 239.218 986.043L242.31 729.5L239.218 472.957C239.02 456.493 247.829 441.235 262.186 433.175L485.905 307.581L706.532 176.632Z" fill="url(#paint2_linear_0_1)" fill-opacity="0.33"/>
<path d="M972.84 308.011L972.85 308.017L1196.57 433.611C1210.77 441.582 1219.48 456.67 1219.28 472.951L1216.19 729.494L1216.19 729.506L1219.28 986.049C1219.48 1002.33 1210.77 1017.42 1196.57 1025.39L972.85 1150.98L972.84 1150.99L752.213 1281.94C738.211 1290.25 720.789 1290.25 706.787 1281.94L486.16 1150.99L486.15 1150.98L262.431 1025.39C248.233 1017.42 239.522 1002.33 239.718 986.049L242.81 729.506L242.81 729.494L239.718 472.951C239.522 456.67 248.233 441.582 262.431 433.611L486.15 308.017L486.16 308.011L706.787 177.062C720.789 168.752 738.211 168.752 752.213 177.062L972.84 308.011Z" stroke="url(#paint3_linear_0_1)" stroke-opacity="0.28"/>
</g>
<g opacity="0.6" filter="url(#filter2_b_0_1)">
<path d="M706.532 324.632C720.691 316.228 738.309 316.228 752.468 324.632L909.455 417.809L1068.64 507.175C1083 515.235 1091.81 530.493 1091.61 546.957L1089.41 729.5L1091.61 912.043C1091.81 928.507 1083 943.765 1068.64 951.825L909.455 1041.19L752.468 1134.37C738.309 1142.77 720.691 1142.77 706.532 1134.37L549.545 1041.19L390.358 951.825C376.001 943.765 367.192 928.507 367.39 912.043L369.59 729.5L367.39 546.957C367.192 530.493 376.001 515.235 390.358 507.175L549.545 417.809L706.532 324.632Z" fill="url(#paint4_linear_0_1)" fill-opacity="0.33"/>
<path d="M909.2 418.239L909.21 418.245L1068.4 507.611C1082.59 515.582 1091.31 530.67 1091.11 546.951L1088.91 729.494L1088.91 729.506L1091.11 912.049C1091.31 928.33 1082.59 943.418 1068.4 951.389L909.21 1040.76L909.2 1040.76L752.213 1133.94C738.211 1142.25 720.789 1142.25 706.787 1133.94L549.8 1040.76L549.79 1040.76L390.603 951.389C376.405 943.418 367.694 928.33 367.89 912.049L370.09 729.506L370.09 729.494L367.89 546.951C367.694 530.67 376.405 515.582 390.603 507.611L549.79 418.245L549.79 418.245L549.8 418.239L706.787 325.062C720.789 316.752 738.211 316.752 752.213 325.062L909.2 418.239Z" stroke="url(#paint5_linear_0_1)" stroke-opacity="0.28"/>
</g>
<g opacity="0.44">
<path d="M1089.47 604C1088.96 673.828 1088.74 808.976 1089.47 876" stroke="url(#paint6_angular_0_1)" stroke-opacity="0.6" stroke-width="3"/>
<path d="M1089.47 604C1088.96 673.828 1088.74 808.976 1089.47 876" stroke="url(#paint7_angular_0_1)" stroke-opacity="0.5" stroke-width="3"/>
</g>
<g opacity="0.44">
<path d="M370.469 604C369.961 673.828 369.736 808.976 370.469 876" stroke="url(#paint8_angular_0_1)" stroke-opacity="0.6" stroke-width="3"/>
<path d="M370.469 604C369.961 673.828 369.736 808.976 370.469 876" stroke="url(#paint9_angular_0_1)" stroke-opacity="0.5" stroke-width="3"/>
</g>
<g filter="url(#filter3_b_0_1)">
<path d="M705.763 508.738C720.301 499.712 738.699 499.712 753.237 508.738L829.587 556.143L908.817 598.562C923.903 606.639 933.102 622.573 932.554 639.676L929.675 729.5L932.554 819.324C933.102 836.427 923.903 852.361 908.817 860.438L829.587 902.857L753.237 950.262C738.699 959.288 720.301 959.288 705.763 950.262L629.413 902.857L550.183 860.438C535.097 852.361 525.898 836.427 526.446 819.324L529.325 729.5L526.446 639.676C525.898 622.573 535.097 606.639 550.183 598.562L629.413 556.143L705.763 508.738Z" fill="url(#paint10_linear_0_1)" fill-opacity="0.33"/>
<path d="M829.324 556.568L829.337 556.577L829.352 556.584L908.581 599.003C923.499 606.99 932.596 622.747 932.054 639.66L929.175 729.484L929.175 729.5L929.175 729.516L932.054 819.34C932.596 836.253 923.499 852.01 908.581 859.997L829.352 902.416L829.337 902.423L829.324 902.432L752.973 949.837C738.597 958.763 720.403 958.763 706.027 949.837L629.676 902.432L629.663 902.423L629.649 902.416L550.419 859.997C535.501 852.01 526.404 836.253 526.946 819.34L529.825 729.516L529.825 729.5L529.825 729.484L526.946 639.66C526.404 622.747 535.501 606.99 550.419 599.003L629.649 556.584L629.663 556.577L629.676 556.568L706.027 509.163C720.403 500.237 738.597 500.237 752.973 509.163L829.324 556.568Z" stroke="url(#paint11_linear_0_1)" stroke-opacity="0.4"/>
</g>
<path d="M685.988 612.719L311.4 396.824V529.074C311.391 544.073 315.335 558.809 322.834 571.799C330.333 584.789 341.123 595.574 354.116 603.068L572.379 728.944L685.988 663.276C690.411 660.71 694.083 657.026 696.635 652.594C699.188 648.163 700.531 643.139 700.531 638.025C700.531 632.911 699.188 627.887 696.635 623.455C694.083 619.024 690.411 615.34 685.988 612.773" fill="#0D47F5"/>
<path d="M572.383 729.013L418.188 640.031C419.13 516.585 317.958 404.181 311.705 397.26C311.846 397.272 311.977 397.335 312.074 397.438C312.863 397.826 313.617 398.282 314.326 398.803C344.36 418.281 592.929 584.996 572.342 729.122" fill="#3A8EF8"/>
<path d="M418.184 640.031L354.116 603.177C341.122 595.687 330.331 584.905 322.832 571.917C315.333 558.929 311.39 544.194 311.4 529.197V396.878L312.138 397.438C312.041 397.335 311.91 397.272 311.769 397.26C317.953 404.181 419.126 516.585 418.252 640.031" fill="#55C0F9"/>
<path d="M773.356 612.718L1147.93 396.823V529.074C1147.94 544.072 1143.99 558.809 1136.5 571.799C1129 584.788 1118.21 595.574 1105.21 603.068L886.951 728.944L773.356 663.276C768.932 660.709 765.26 657.026 762.708 652.594C760.156 648.163 758.812 643.138 758.812 638.025C758.812 632.911 760.156 627.887 762.708 623.455C765.26 619.023 768.932 615.34 773.356 612.773" fill="#0D47F5"/>
<path d="M887.324 729.012L1041.52 640.031C1040.58 516.584 1141.75 404.18 1148 397.26C1147.86 397.274 1147.73 397.337 1147.63 397.437C1146.85 397.831 1146.09 398.287 1145.38 398.802C1115.35 418.28 866.791 584.996 887.364 729.121" fill="#3A8EF8"/>
<path d="M1147.93 397.26V529.142C1147.94 544.139 1144 558.874 1136.5 571.862C1129 584.85 1118.21 595.632 1105.21 603.122L1041.52 639.839C1040.77 516.393 1141.75 404.18 1148 397.26" fill="#55C0F9"/>
<path d="M615 753.418L729.674 819.796L844.607 753.418L745.346 696.09C740.584 693.337 735.181 691.887 729.681 691.887C724.18 691.887 718.777 693.337 714.015 696.09L615 753.418Z" fill="#0D47F5"/>
<defs>
<filter id="filter0_b_0_1" x="86.0527" y="-4.67065" width="1286.89" height="1468.34" filterUnits="userSpaceOnUse" color-interpolation-filters="sRGB">
<feFlood flood-opacity="0" result="BackgroundImageFix"/>
<feGaussianBlur in="BackgroundImageFix" stdDeviation="6"/>
<feComposite in2="SourceAlpha" operator="in" result="effect1_backgroundBlur_0_1"/>
<feBlend mode="normal" in="SourceGraphic" in2="effect1_backgroundBlur_0_1" result="shape"/>
</filter>
<filter id="filter1_b_0_1" x="227.215" y="158.329" width="1004.57" height="1142.34" filterUnits="userSpaceOnUse" color-interpolation-filters="sRGB">
<feFlood flood-opacity="0" result="BackgroundImageFix"/>
<feGaussianBlur in="BackgroundImageFix" stdDeviation="6"/>
<feComposite in2="SourceAlpha" operator="in" result="effect1_backgroundBlur_0_1"/>
<feBlend mode="normal" in="SourceGraphic" in2="effect1_backgroundBlur_0_1" result="shape"/>
</filter>
<filter id="filter2_b_0_1" x="355.387" y="306.329" width="748.227" height="846.341" filterUnits="userSpaceOnUse" color-interpolation-filters="sRGB">
<feFlood flood-opacity="0" result="BackgroundImageFix"/>
<feGaussianBlur in="BackgroundImageFix" stdDeviation="6"/>
<feComposite in2="SourceAlpha" operator="in" result="effect1_backgroundBlur_0_1"/>
<feBlend mode="normal" in="SourceGraphic" in2="effect1_backgroundBlur_0_1" result="shape"/>
</filter>
<filter id="filter3_b_0_1" x="516.422" y="491.968" width="426.156" height="475.063" filterUnits="userSpaceOnUse" color-interpolation-filters="sRGB">
<feFlood flood-opacity="0" result="BackgroundImageFix"/>
<feGaussianBlur in="BackgroundImageFix" stdDeviation="5"/>
<feComposite in2="SourceAlpha" operator="in" result="effect1_backgroundBlur_0_1"/>
<feBlend mode="normal" in="SourceGraphic" in2="effect1_backgroundBlur_0_1" result="shape"/>
</filter>
<linearGradient id="paint0_linear_0_1" x1="203.946" y1="-109.817" x2="1072.9" y2="1174.87" gradientUnits="userSpaceOnUse">
<stop stop-color="white" stop-opacity="0.4"/>
<stop offset="1" stop-color="white" stop-opacity="0.1"/>
</linearGradient>
<linearGradient id="paint1_linear_0_1" x1="367.073" y1="37.172" x2="1380.01" y2="1380.01" gradientUnits="userSpaceOnUse">
<stop stop-color="white" stop-opacity="0.8"/>
<stop offset="1" stop-color="white" stop-opacity="0"/>
<stop offset="1" stop-color="white" stop-opacity="0.1"/>
</linearGradient>
<linearGradient id="paint2_linear_0_1" x1="321.376" y1="77.7204" x2="996.168" y2="1075.36" gradientUnits="userSpaceOnUse">
<stop stop-color="white" stop-opacity="0.4"/>
<stop offset="1" stop-color="white" stop-opacity="0.1"/>
</linearGradient>
<linearGradient id="paint3_linear_0_1" x1="448.054" y1="191.866" x2="1234.66" y2="1234.66" gradientUnits="userSpaceOnUse">
<stop stop-color="white" stop-opacity="0.8"/>
<stop offset="1" stop-color="white" stop-opacity="0"/>
<stop offset="1" stop-color="white" stop-opacity="0.1"/>
</linearGradient>
<linearGradient id="paint4_linear_0_1" x1="428" y1="248" x2="926.5" y2="985" gradientUnits="userSpaceOnUse">
<stop stop-color="white" stop-opacity="0.4"/>
<stop offset="1" stop-color="white" stop-opacity="0.1"/>
</linearGradient>
<linearGradient id="paint5_linear_0_1" x1="521.583" y1="332.325" x2="1102.68" y2="1102.68" gradientUnits="userSpaceOnUse">
<stop stop-color="white" stop-opacity="0.8"/>
<stop offset="1" stop-color="white" stop-opacity="0"/>
<stop offset="1" stop-color="white" stop-opacity="0.1"/>
</linearGradient>
<radialGradient id="paint6_angular_0_1" cx="0" cy="0" r="1" gradientUnits="userSpaceOnUse" gradientTransform="translate(1021.97 716) rotate(-3.00153) scale(133.683 119.575)">
<stop offset="0.166667" stop-color="white" stop-opacity="0"/>
<stop offset="0.838542" stop-color="white" stop-opacity="0"/>
<stop offset="1" stop-color="white"/>
</radialGradient>
<radialGradient id="paint7_angular_0_1" cx="0" cy="0" r="1" gradientUnits="userSpaceOnUse" gradientTransform="translate(1048.97 724) rotate(1.09469) scale(78.5143 91.7049)">
<stop offset="0.166667" stop-color="white" stop-opacity="0"/>
<stop offset="0.838542" stop-color="white" stop-opacity="0"/>
<stop offset="1" stop-color="white"/>
</radialGradient>
<radialGradient id="paint8_angular_0_1" cx="0" cy="0" r="1" gradientUnits="userSpaceOnUse" gradientTransform="translate(302.969 716) rotate(-3.00153) scale(133.683 119.575)">
<stop offset="0.166667" stop-color="white" stop-opacity="0"/>
<stop offset="0.838542" stop-color="white" stop-opacity="0"/>
<stop offset="1" stop-color="white"/>
</radialGradient>
<radialGradient id="paint9_angular_0_1" cx="0" cy="0" r="1" gradientUnits="userSpaceOnUse" gradientTransform="translate(329.969 724) rotate(1.09469) scale(78.5143 91.7049)">
<stop offset="0.166667" stop-color="white" stop-opacity="0"/>
<stop offset="0.838542" stop-color="white" stop-opacity="0"/>
<stop offset="1" stop-color="white"/>
</radialGradient>
<linearGradient id="paint10_linear_0_1" x1="543" y1="465" x2="820.5" y2="872.5" gradientUnits="userSpaceOnUse">
<stop stop-color="white" stop-opacity="0.4"/>
<stop offset="1" stop-color="white" stop-opacity="0.1"/>
</linearGradient>
<linearGradient id="paint11_linear_0_1" x1="612.5" y1="506" x2="939.5" y2="939.5" gradientUnits="userSpaceOnUse">
<stop stop-color="white" stop-opacity="0.8"/>
<stop offset="1" stop-color="white" stop-opacity="0"/>
<stop offset="1" stop-color="white" stop-opacity="0.1"/>
</linearGradient>
</defs>
</svg>
